Medicare – Refactoring <b>provider</b><sup><i>2</i></sup>
…
Dataset

Within data.json, there is an array called dataset:

dataset <- data_json |> 
  pull(dataset) |> 
  pluck(1) |> 
  as_tibble()

dataset

# A tibble: 139 × 22
   `@type`      accessLevel accrualPeriodicity bureauCode contactPoint$`@type`
   <chr>        <chr>       <chr>              <list>     <chr>               
 1 dcat:Dataset public      R/P1Y              <chr [1]>  vcard:Contact       
 2 dcat:Dataset public      R/P1Y              <chr [1]>  vcard:Contact       
 3 dcat:Dataset public      R/P1Y              <chr [1]>  vcard:Contact       
 4 dcat:Dataset public      R/P1Y              <chr [1]>  vcard:Contact       
 5 dcat:Dataset public      R/P1Y              <chr [1]>  vcard:Contact       
 6 dcat:Dataset public      R/P1Y              <chr [1]>  vcard:Contact       
 7 dcat:Dataset public      R/P1Y              <chr [1]>  vcard:Contact       
 8 dcat:Dataset public      R/P1Y              <chr [1]>  vcard:Contact       
 9 dcat:Dataset public      R/P1Y              <chr [1]>  vcard:Contact       
10 dcat:Dataset public      R/P1Y              <chr [1]>  vcard:Contact       
# ℹ 129 more rows
# ℹ 19 more variables: contactPoint$fn <chr>, $hasEmail <chr>,
#   describedBy <chr>, dataQuality <lgl>, description <chr>,
#   distribution <list>, identifier <chr>, keyword <list>, landingPage <chr>,
#   language <list>, license <chr>, modified <dttm>, programCode <list>,
#   publisher <df[,2]>, references <list>, temporal <chr>, theme <list>,
#   title <chr>, describedByType <chr>
…
