5 Medicaid – Refactoring Provider
…
  list(
    sets = reduce(list(slt(x, -theme, -keyword, -references, -distribution), groups, keys, refs), join_title),
    download = new_tbl(title = tvec, download = delist(get_elem(d$data, "downloadURL"))),
    dictionary = delist(get_elem(d$data, "describedBy")) |> funique() |> as_tbl()
    )
  
}

x <- catalog_mcd()

x

$sets
# A tibble: 482 × 11
   title        identifier description periodicity issued     modified   contact
 * <chr>        <chr>      <chr>       <chr>       <date>     <date>     <chr>  
 1 State Drug … ae4d5347-… Drug utili… Decenniall… 2015-06-11 2024-06-11 Medica…
 2 State Drug … acbd1537-… Drug utili… Decenniall… 2015-06-11 2024-06-11 Medica…
 3 State Drug … ec0d4b04-… Drug utili… Decenniall… 2015-06-11 2024-06-11 Medica…
 4 State Drug … 602e7c79-… Drug utili… Decenniall… 2015-06-11 2024-06-11 Medica…
 5 State Drug … 17c4bf03-… Drug utili… Decenniall… 2015-06-11 2024-06-11 Medica…
 6 State Drug … 56adbcf4-… Drug utili… Decenniall… 2015-06-11 2024-06-11 Medica…
 7 State Drug … b28a22a2-… Drug utili… Decenniall… 2015-06-11 2024-06-11 Medica…
 8 State Drug … d371b0f4-… Drug utili… Decenniall… 2015-06-11 2024-06-11 Medica…
 9 State Drug … c39d3302-… Drug utili… Decenniall… 2015-06-11 2024-06-11 Medica…
10 State Drug … 57c03da7-… Drug utili… Decenniall… 2015-06-11 2024-06-11 Medica…
# ℹ 472 more rows
# ℹ 4 more variables: temporal <chr>, group <chr>, keywords <chr>,
#   references <chr>

$download
# A tibble: 515 × 2
   title                            download                                    
   <chr>                            <chr>                                       
 1 State Drug Utilization Data 1991 https://download.medicaid.gov/data/StateDru…
 2 State Drug Utilization Data 1992 https://download.medicaid.gov/data/StateDru…
 3 State Drug Utilization Data 1993 https://download.medicaid.gov/data/StateDru…
 4 State Drug Utilization Data 1994 https://download.medicaid.gov/data/StateDru…
 5 State Drug Utilization Data 1995 https://download.medicaid.gov/data/StateDru…
 6 State Drug Utilization Data 1996 https://download.medicaid.gov/data/StateDru…
 7 State Drug Utilization Data 1997 https://download.medicaid.gov/data/StateDru…
 8 State Drug Utilization Data 1998 https://download.medicaid.gov/data/StateDru…
 9 State Drug Utilization Data 1999 https://download.medicaid.gov/data/StateDru…
10 State Drug Utilization Data 2000 https://download.medicaid.gov/data/StateDru…
# ℹ 505 more rows

$dictionary
# A tibble: 66 × 1
   value                                                                        
   <chr>                                                                        
 1 https://data.medicaid.gov/api/1/metastore/schemas/data-dictionary/items/6eb0…
 2 https://data.medicaid.gov/api/1/metastore/schemas/data-dictionary/items/de58…
 3 https://data.medicaid.gov/api/1/metastore/schemas/data-dictionary/items/f686…
 4 https://data.medicaid.gov/api/1/metastore/schemas/data-dictionary/items/8b3e…
 5 https://data.medicaid.gov/api/1/metastore/schemas/data-dictionary/items/7d80…
 6 https://data.medicaid.gov/api/1/metastore/schemas/data-dictionary/items/64b9…
 7 https://data.medicaid.gov/api/1/metastore/schemas/data-dictionary/items/9d72…
 8 https://data.medicaid.gov/api/1/metastore/schemas/data-dictionary/items/4041…
 9 https://data.medicaid.gov/api/1/metastore/schemas/data-dictionary/items/e278…
10 https://data.medicaid.gov/api/1/metastore/schemas/data-dictionary/items/8f48…
# ℹ 56 more rows
…
