3 Open Payments – Refactoring <b>provider</b><sup><i>2</i></sup>
…
Physician

Entity

Mapping

Reporting

Teaching

• Rows [1.5M] • Pages [3.1k] • Fields [32]

open_quick("profile_covered")

# A tibble: 500 × 32
   covered_recipient_profile_type covered_recipient_pro…¹ associated_covered_r…²
 * <chr>                          <chr>                   <chr>                 
 1 Covered Recipient Physician    1                       <NA>                  
 2 Covered Recipient Physician    2                       <NA>                  
 3 Covered Recipient Physician    3                       <NA>                  
 4 Covered Recipient Physician    4                       <NA>                  
 5 Covered Recipient Physician    5                       <NA>                  
 6 Covered Recipient Physician    6                       <NA>                  
 7 Covered Recipient Physician    7                       <NA>                  
 8 Covered Recipient Physician    9                       <NA>                  
 9 Covered Recipient Physician    10                      <NA>                  
10 Covered Recipient Physician    11                      <NA>                  
# ℹ 490 more rows
# ℹ abbreviated names: ¹​covered_recipient_profile_id,
#   ²​associated_covered_recipient_profile_id_1
# ℹ 29 more variables: associated_covered_recipient_profile_id_2 <chr>,
#   covered_recipient_npi <chr>, covered_recipient_profile_first_name <chr>,
#   covered_recipient_profile_middle_name <chr>,
#   covered_recipient_profile_last_name <chr>, …

• Rows [1.5M] • Pages [3.1k] • Fields [33]

open_quick("profile_physician")

# A tibble: 500 × 33
   covered_recipient_profile_type covered_recipient_prof…¹ covered_recipient_npi
 * <chr>                          <chr>                    <chr>                
 1 Covered Recipient Physician    1                        1003020595           
 2 Covered Recipient Physician    2                        1003022823           
 3 Covered Recipient Physician    3                        1003023359           
 4 Covered Recipient Physician    4                        1003024811           
 5 Covered Recipient Physician    5                        1003025875           
 6 Covered Recipient Physician    6                        1003026410           
 7 Covered Recipient Physician    7                        1003028150           
 8 Covered Recipient Physician    9                        1003033051           
 9 Covered Recipient Physician    10                       1003000407           
10 Covered Recipient Physician    11                       1003002072           
# ℹ 490 more rows
# ℹ abbreviated name: ¹​covered_recipient_profile_id
# ℹ 30 more variables: covered_recipient_profile_first_name <chr>,
#   covered_recipient_profile_middle_name <chr>,
#   covered_recipient_profile_last_name <chr>,
#   covered_recipient_profile_suffix <chr>,
#   covered_recipient_profile_alternate_first_name1 <chr>, …

• Rows [1.5M] • Pages [3.1k] • Fields [20]

open_quick("profile_information")

# A tibble: 500 × 20
   entity_id entity_provider_type entity_npi entity_alternate_id entity_type
 * <chr>     <chr>                <chr>      <chr>               <chr>      
 1 010001    <NA>                 <NA>       false               h          
 2 010006    <NA>                 <NA>       false               h          
 3 010011    <NA>                 <NA>       false               h          
 4 010018    <NA>                 <NA>       false               h          
 5 010023    <NA>                 <NA>       false               h          
 6 010029    <NA>                 <NA>       false               h          
 7 010033    <NA>                 <NA>       false               h          
 8 010039    <NA>                 <NA>       false               h          
 9 010056    <NA>                 <NA>       false               h          
10 010083    <NA>                 <NA>       false               h          
# ℹ 490 more rows
# ℹ 15 more variables: entity_name <chr>, entity_alternate_name1 <chr>,
#   entity_alternate_name2 <chr>, entity_alternate_name3 <chr>,
#   entity_alternate_name4 <chr>, entity_alternate_name5 <chr>,
#   entity_address_line_1 <chr>, entity_address_line_2 <chr>,
#   entity_city <chr>, entity_state <chr>, entity_zipcode <chr>,
#   entity_country_name <chr>, entity_province_name <chr>, …

• Rows [2.4k] • Pages [5] • Fields [2]

open_quick("profile_mapping")

# A tibble: 500 × 2
   primary_provider_profile_id secondary_provider_profile_id
 * <chr>                       <chr>                        
 1 5507329                     1314258                      
 2 7219918                     1314387                      
 3 5486758                     1316065                      
 4 8443351                     1389692                      
 5 5645434                     1393915                      
 6 4429081                     2784499                      
 7 138851                      4216700                      
 8 7992179                     4217274                      
 9 655463                      4217553                      
10 247172                      4219288                      
# ℹ 490 more rows

• Rows [2.8k] • Pages [6] • Fields [9]

open_quick("profile_entity")

# A tibble: 500 × 9
   amgpo_making_payment_id amgpo_making_payment_name      amgpo_making_payment…¹
 * <chr>                   <chr>                          <chr>                 
 1 100000000053            MERCK SHARP & DOHME LLC        NJ                    
 2 100000000055            COMSORT, INC                   MD                    
 3 100000000056            DAIICHI SANKYO COMPANY LTD     <NA>                  
 4 100000000057            C. R. BARD, INC. & SUBSIDIARI… NJ                    
 5 100000000058            NOVARTIS PHARMA AG             <NA>                  
 6 100000000061            HILL-ROM HOLDINGS, INC         IN                    
 7 100000000062            SANDOZ INC.                    NJ                    
 8 100000000063            IMCLONE SYSTEMS, LLC           IN                    
 9 100000000065            NATIONAL DENTEX LLC            FL                    
10 100000000066            LILLY USA, LLC                 IN                    
# ℹ 490 more rows
# ℹ abbreviated name: ¹​amgpo_making_payment_state
# ℹ 6 more variables: amgpo_making_payment_country <chr>,
#   amgpo_making_payment_alternate_name1 <chr>,
#   amgpo_making_payment_alternate_name2 <chr>,
#   amgpo_making_payment_alternate_name3 <chr>,
#   amgpo_making_payment_alternate_name4 <chr>, …

• Rows [1.4k] • Pages [3] • Fields [12]

open_quick("profile_teaching")

# A tibble: 500 × 12
   teaching_hospital_ccn teaching_hospital_name           teaching_hospital_ad…¹
 * <chr>                 <chr>                            <chr>                 
 1 010001                SOUTHEAST HEALTH MEDICAL CENTER  1108 Ross Clark Circle
 2 010006                NORTH ALABAMA MEDICAL CENTER     1701 Veterans Drive   
 3 010011                ST. VINCENTS EAST                50 Medical Park Drive…
 4 010018                CALLAHAN EYE FOUNDATION HOSP     1720 University Boule…
 5 010023                BAPTIST MEDICAL CENTER SOUTH     2105  East South Boul…
 6 010029                EAST ALABAMA MEDICAL CENTER      2000 Pepperell Pkwy   
 7 010033                UNIVERSITY OF ALABAMA HOSPITAL   619 South 19th Street 
 8 010039                HUNTSVILLE HOSPITAL              101 Sivley Road       
 9 010056                ST VINCENTS BIRMINGHAM           810 St Vincents Drive 
10 010083                SOUTH BALDWIN REGIONAL MEDICAL … 1613 North Mckenzie   
# ℹ 490 more rows
# ℹ abbreviated name: ¹​teaching_hospital_address1
# ℹ 9 more variables: teaching_hospital_address2 <chr>,
#   teaching_hospital_city <chr>, teaching_hospital_state <chr>,
#   teaching_hospital_zip_code <chr>, teaching_hospital_alternate_name1 <chr>,
#   teaching_hospital_alternate_name2 <chr>,
#   teaching_hospital_alternate_name3 <chr>, …

Summaries

Dashboard

National

State

open_quick("dashboard")

# A tibble: 90 × 10
   dashboard_row_number data_metrics     py_2017 py_2018 py_2019 py_2020 py_2021
 * <chr>                <chr>            <chr>   <chr>   <chr>   <chr>   <chr>  
 1 2                    Total Dollar Am… 998344… 109882… 118794… 100519… 124674…
 2 3                    Total Dollar Am… 296470… 311980… 371116… 218672… 325478…
 3 4                    Total Dollar Am… 160510… 231246… 748979… 184671… 237104…
 4 5                    Total Dollar Am… 296309… 311749… 371041… 218487… 325240…
 5 6                    Total Dollar Am… 594550… 621907… 654725… 648136… 766416…
 6 7                    Total Dollar Am… 139533… 155362… 176525… 169179… 174644…
 7 8                    Total Dollar Am… 455016… 466545… 478199… 478957… 591771…
 8 9                    Total Dollar Am… 466174… 477411… 488186… 487109… 599788…
 9 10                   Total Dollar Am… 455016… 466545… 478199… 478957… 591814…
10 11                   Total Dollar Am… 362794… 275792… 799696… 496954… 140845…
# ℹ 80 more rows
# ℹ 3 more variables: py_2022 <chr>, py_2023 <chr>, total <chr>

open_dashboard()

$count
$count$entity
# A tibble: 32 × 3
   year  metric                              count
 * <fct> <chr>                               <int>
 1 ALL   Companies [AM/GPO] Making Payments   2843
 2 2023  Companies [AM/GPO] Making Payments   1776
 3 2022  Companies [AM/GPO] Making Payments   1858
 4 2021  Companies [AM/GPO] Making Payments   1855
 5 2020  Companies [AM/GPO] Making Payments   1779
 6 2019  Companies [AM/GPO] Making Payments   1797
 7 2018  Companies [AM/GPO] Making Payments   1755
 8 2017  Companies [AM/GPO] Making Payments   1678
 9 ALL   NPPs with Payment Records          414900
10 2023  NPPs with Payment Records          309427
# ℹ 22 more rows

$count$record
# A tibble: 320 × 5
   year  type  entity                     status    count
 * <fct> <chr> <chr>                      <chr>     <int>
 1 ALL   All   <NA>                       <NA>   84035057
 2 ALL   All   Physician                  <NA>   65341949
 3 ALL   All   Non-Physician Practitioner <NA>   12787445
 4 ALL   All   Teaching Hospital          <NA>    1131236
 5 2023  All   <NA>                       <NA>   15639275
 6 2023  All   Physician                  <NA>    9630514
 7 2023  All   Non-Physician Practitioner <NA>    4976520
 8 2023  All   Teaching Hospital          <NA>     143632
 9 2022  All   <NA>                       <NA>   14277900
10 2022  All   Physician                  <NA>    9036995
# ℹ 310 more rows
…
• Rows [24] • Pages [1] • Fields [18]

open_quick("national_total")

# A tibble: 24 × 18
   metric_level payment_type recipient_type  program_year total_number_of_phys…¹
 * <chr>        <chr>        <chr>           <chr>        <chr>                 
 1 National     Research     Covered Recipi… 2017         7326                  
 2 National     General      Covered Recipi… 2017         635227                
 3 National     Research     Covered Recipi… 2018         6845                  
 4 National     General      Covered Recipi… 2018         631460                
 5 National     Research     Covered Recipi… 2019         7333                  
 6 National     General      Covered Recipi… 2019         624949                
 7 National     Research     Covered Recipi… 2020         6880                  
 8 National     General      Covered Recipi… 2020         489144                
 9 National     Research     Covered Recipi… 2021         5285                  
10 National     Research     Covered Recipi… 2021         0                     
# ℹ 14 more rows
# ℹ abbreviated name: ¹​total_number_of_physicians
# ℹ 13 more variables: total_number_of_non_physician_practitioners <chr>,
#   total_payment_amount_physician <chr>,
#   total_payment_amount_non_physician_practitioner <chr>,
#   mean_total_payment_amount_physician <chr>,
#   mean_total_payment_amount_non_physician_practitioner <chr>, …
…
payment_publication_date
5000
1
01/30/2025
▇
10
10.00
10.0
10

• Rows [4k] • Pages [9] • Fields [30] • Years [2017 - 2023]

open_quick("ownership")

# A tibble: 500 × 30
   change_type physician_profile_id physician_npi physician_first_name
 * <chr>       <chr>                <chr>         <chr>               
 1 UNCHANGED   329721               1275588246    Frank               
 2 UNCHANGED   4213213              1952690257    Edward              
 3 UNCHANGED   170314               1750495099    ERIK                
 4 UNCHANGED   151386               1336161561    Cindy               
 5 UNCHANGED   130749               1871710756    Nikhil              
 6 UNCHANGED   1237732              1720038334    Elizabeth           
 7 UNCHANGED   911126               1255329009    MARK                
 8 UNCHANGED   498003               1720029465    William             
 9 UNCHANGED   343028               1548349566    Robert              
10 UNCHANGED   312675               1902822638    LAWRENCE            
# ℹ 490 more rows
# ℹ 26 more variables: physician_middle_name <chr>, physician_last_name <chr>,
#   physician_name_suffix <chr>,
#   recipient_primary_business_street_address_line1 <chr>,
#   recipient_primary_business_street_address_line2 <chr>,
#   recipient_city <chr>, recipient_state <chr>, recipient_zip_code <chr>,
#   recipient_country <chr>, recipient_province <chr>, …

• Rows [1M] • Pages [9] • Fields [252] • Years [2017 - 2023]

open_quick("research")

# A tibble: 500 × 252
   change_type covered_recipient_type              noncovered_recipient_entity…¹
 * <chr>       <chr>                               <chr>                        
 1 CHANGED     Covered Recipient Teaching Hospital <NA>                         
 2 CHANGED     Covered Recipient Teaching Hospital <NA>                         
 3 UNCHANGED   Non-covered Recipient Entity        SARAH CANNON CANCER INSTITUT…
 4 CHANGED     Non-covered Recipient Entity        Health Partners              
 5 UNCHANGED   Covered Recipient Teaching Hospital <NA>                         
 6 UNCHANGED   Covered Recipient Teaching Hospital <NA>                         
 7 UNCHANGED   Non-covered Recipient Entity        ONCOLOGY HEMATOLOGY CONSULTA…
 8 UNCHANGED   Non-covered Recipient Entity        MEMORIAL SLOAN KETTERING CAN…
 9 UNCHANGED   Non-covered Recipient Entity        BOARD OF REGENTS OF THE UNIV…
10 UNCHANGED   Non-covered Recipient Entity        SARAH CANNON CANCER INSTITUT…
# ℹ 490 more rows
# ℹ abbreviated name: ¹​noncovered_recipient_entity_name
# ℹ 249 more variables: teaching_hospital_ccn <chr>,
#   teaching_hospital_id <chr>, teaching_hospital_name <chr>,
#   covered_recipient_profile_id <chr>, covered_recipient_npi <chr>,
#   covered_recipient_first_name <chr>, covered_recipient_middle_name <chr>,
#   covered_recipient_last_name <chr>, covered_recipient_name_suffix <chr>, …
…
