HealthCare.Gov – Refactoring <b>provider</b><sup><i>2</i></sup>
…
  list(
    sets = join_title(slt(x, -keyword, -distribution), keys) |> join_title(download |> sbt(N == 1) |> slt(-N)),
    download = download |> sbt(N > 1)
    )
  
}

x <- catalog_hc()

x

$sets
# A tibble: 315 × 9
   title        identifier description periodicity issued     modified   contact
 * <chr>        <chr>      <chr>       <chr>       <date>     <date>     <chr>  
 1 Agent Broke… e4rr-zk4i  "Dataset."  Decenniall… 2018-07-31 2025-03-24 FFMPro…
 2 AB Registra… wb6u-x2ny  "Access Da… Decenniall… 2016-03-30 2025-03-24 FFMPro…
 3 AB Suspensi… e8uy-7rnp  "Access Da… Decenniall… 2016-05-03 2025-03-24 FFMPro…
 4 Network PUF… efch-75vp  "The Netwo… <NA>        2020-10-09 2021-08-11 Andy E…
 5 Service Are… cqrd-buzn  "The Servi… <NA>        2020-10-09 2021-08-11 Andy E…
 6 Business Ru… g6ja-xx6f  "The Busin… <NA>        2020-10-09 2021-08-11 Andy E…
 7 Plan Attrib… a2km-i629  "The Plan … <NA>        2020-10-09 2021-08-11 Andy E…
 8 Benefits an… 86mw-kems  "The Benef… <NA>        2020-10-09 2021-08-11 Andy E…
 9 Rate PUF - … 7wqt-7ky9  "The Rate … <NA>        2020-10-09 2021-08-11 Andy E…
10 Issuer_Part… 5k5i-wzex  "The datas… Decenniall… 2020-06-05 2025-01-13 Domini…
# ℹ 305 more rows
# ℹ 2 more variables: keyword <chr>, download <chr>
…
