9 ACO AIP Plan – Refactoring <b>provider</b><sup><i>2</i></sup>
…
 1 ACO_ID                                           Unencrypted ACO Identifier.…
 2 ACO_Name                                         ACO Doing Business As (DBA)…
 3 Payment_Use                                      Indicates ACO description o…
 4 General_Spend_Category                           Indicates which one of the …
 5 General_Spend_Subcategory                        Indicates a selected genera…
 6 Total_AIP_Funding_Received_through_December_2024 The dollar amount of AIP fu…
 7 Projected_Spending_2024                          The dollar amount the ACO e…
 8 Actual_Spending_2024                             The dollar amount the ACO a…
 9 Projected_Spending_2025                          The dollar amount the ACO e…
10 Actual_Spending_2025                             The dollar amount the ACO a…

Data

# A tibble: 206 × 11
   ACO_ID ACO_Name     Payment_Use General_Spend_Category General_Spend_Subcat…¹
                                                       
 1 A5335  Memorial He… NA          NA                     NA                    
 2 A5335  Memorial He… ACO IT cos… Health Care Infrastru… Clinical data registr…
 3 A5335  Memorial He… Resources … Increased Staffing     Other (explain in Pay…
 4 A5335  Memorial He… Resources … Increased Staffing     Case manager          
 5 A5335  Memorial He… Investment… Provision of Accounta… Comprehensive assessm…
 6 A5330  Value Based… NA          NA                     NA                    
 7 A5330  Value Based… Polypharma… Increased Staffing     Physician assistant, …
 8 A5330  Value Based… Heart Fail… Increased Staffing     Physician assistant, …
 9 A5330  Value Based… High Risk … Increased Staffing     Case manager          
10 A5330  Value Based… Building A… Health Care Infrastru… Case/practice managem…
# ℹ 196 more rows
# ℹ abbreviated name: ¹​General_Spend_Subcategory
# ℹ 6 more variables: Total_AIP_Funding_Received_through_December_2024 ,
#   Projected_Spending_2024 , Actual_Spending_2024 ,
#   Projected_Spending_2025 , Actual_Spending_2025 ,
#   Total_Funding_through_December_2024 
…
