13 CPC Initiative – Refactoring <b>provider</b><sup><i>2</i></sup>
…
res

$AR
Simple feature collection with 69 features and 4 fields
Geometry type: POINT
Dimension:     XY
Bounding box:  xmin: -1880000 ymin: -1280000 xmax: 2160000 ymax: 313000
Projected CRS: NAD27 / US National Atlas Equal Area
# A tibble: 69 × 5
   practice                        state city  address          geometry
                                         
 1 Ouachita Valley Family Clinic   AR    Camd… 353 Ca… (664552 -1238796)
 2 UAMS AHEC Southwest             AR    Texa… 300 Ea… (555312 -1265285)
 3 Freeman Family Medicine         AR    Conw… 3025 F… (686246 -1070511)
 4 Klepper                         AR    Harr… 707 N.…  (619190 -948121)
 5 Senior Health Clinic            AR    West… 304 So… (893046 -1042726)
 6 Burchfield Family Medicine      AR    Para… 630 We…  (854999 -945203)
 7 Baptist Health Family Clinic H… AR    Litt… 2601 K… (703062 -1105570)
 8 St. Vincent Medical Clinic Mid… AR    Litt… 1100 N… (701307 -1105239)
 9 Covert Clinic, PA               AR    Ashd… 122 So… (546834 -1239935)
10 Siloam Springs Medical Center   AR    Silo… 451 S …  (489383 -963693)
# ℹ 59 more rows

$CO
Simple feature collection with 74 features and 4 fields
Geometry type: POINT
Dimension:     XY
Bounding box:  xmin: -1880000 ymin: -1280000 xmax: 2160000 ymax: 313000
Projected CRS: NAD27 / US National Atlas Equal Area
# A tibble: 74 × 5
   practice                        state city  address          geometry
                                         
 1 Colorado Springs Health Partne… CO    Colo… 6025 D… (-417741 -663709)
 2 Banner Medical Clinic Harmony   CO    Ft. … 608 E … (-428240 -484454)
 3 Foresight Family Physicians     CO    Gran… 2503 F… (-740457 -618156)
 4 NE Colorado Family Medicine As… CO    Ster… 1405 S… (-272073 -482454)
 5 Arapahoe Peak Medical Group     CO    Ever… 28000 … (-455438 -581424)
 6 Mayfair Internal Medicine       CO    Denv… 6311 E… (-420341 -572399)
 7 Telluride Medical Center - Pri… CO    Tell… 500 W.… (-685480 -752708)
 8 SDCIM                           CO    Pueb… 1600 N… (-402927 -735473)
 9 Partners in Health Family Medi… CO    West… 3520 W… (-429657 -557912)
10 DTC Family Health               CO    Gree… 8200 E… (-419250 -585192)
# ℹ 64 more rows
…
$NJ
Simple feature collection with 70 features and 4 fields
Geometry type: POINT
Dimension:     XY
Bounding box:  xmin: -1880000 ymin: -1280000 xmax: 2160000 ymax: 313000
Projected CRS: NAD27 / US National Atlas Equal Area
# A tibble: 70 × 5
   practice                        state city  address          geometry
                                         
 1 Ocean County Internal Medicine… NJ    Lake… 1352 R… (2152117 -209616)
 2 Princeton Health Affiliated Ph… NJ    Prin… 5 Plai… (2107363 -188757)
 3 Hopewell Family Practice        NJ    Hope… 84 Eas… (2098201 -186913)
 4 Water Street Physicians         NJ    Toms… 300 W … (2156799 -219434)
 5 Summit Medical Arts Associates… NJ    Nort… 9225 K… (2144245 -122180)
 6 Your Doctors Care               NJ    Hill… 71 Rou… (2104527 -166417)
 7 RWJMG Family Medicine at Monum… NJ    New … 317 Ge… (2119871 -167815)
 8 Hunterdon Family Practice & Ob… NJ    Flem… 1100 W… (2085562 -174406)
 9 Marshall Lauer MD               NJ    Coll… 414 Ha… (2087567 -245865)
10 Hampton Family Practice         NJ    Hamp… 450 Ch… (2071334 -160351)
# ℹ 60 more rows

$NY
Simple feature collection with 74 features and 4 fields
Geometry type: POINT
Dimension:     XY
Bounding box:  xmin: -1880000 ymin: -1280000 xmax: 2160000 ymax: 313000
Projected CRS: NAD27 / US National Atlas Equal Area
# A tibble: 74 × 5
   practice                        state city  address         geometry
                                        
 1 Community Care Physicians/Alba… NY    Alba… 2 Clar…  (2099403 80608)
 2 Heritage Medical Group          NY    Slee… 362 No… (2146162 -88719)
 3 First Care                      NY    Delm… 363 De…  (2095948 76483)
 4 Village Medical PLLC            NY    Pawl… 7 Chap… (2152586 -33465)
 5 Latham Medical Group            NY    Lath… 713 Tr…  (2095524 92284)
 6 CapitalCare Internal Medicine … NY    Sche… 1201 N…  (2082776 95373)
 7 Latham Internal Medicine        NY    Lath… 711 Tr…  (2095537 92283)
 8 Jill Braverman-Panza, M.D.      NY    Alba… 1375 W…  (2095176 83776)
 9 Capital Healthcare Associates   NY    Troy  2001 F…  (2103211 92179)
10 Hudson Medical Care             NY    Huds… 71 Pro…  (2113118 37576)
# ℹ 64 more rows

$OH
Simple feature collection with 61 features and 4 fields
Geometry type: POINT
Dimension:     XY
Bounding box:  xmin: -1880000 ymin: -1280000 xmax: 2160000 ymax: 313000
Projected CRS: NAD27 / US National Atlas Equal Area
# A tibble: 61 × 5
   practice                        state city  address          geometry
                                         
 1 TriHealth: Group Health- Sprin… OH    Cinc… 55 Pro… (1328662 -508841)
 2 TriHealth: TPP - Physician Ass… OH    Fore… 1253 K… (1323730 -510438)
 3 PriMed Physicians Beavercreek   OH    Beav… 2322 L… (1353892 -451746)
 4 Lugo Family Practice-Providenc… OH    Cent… 7720 P… (1348032 -469255)
 5 TriHealth: TPP - Moreira & Rob… OH    Cinc… 10495 … (1339872 -512074)
 6 Springfield Health Care Center… OH    Spri… 30 War… (1371023 -428771)
 7 Farmersville Medical Center-Pr… OH    Farm… 49 Eas… (1324538 -466307)
 8 TCHMA MOB 440                   OH    Cinc… 2123 A… (1328568 -529035)
 9 PriMed Physicians Lincoln Park  OH    Kett… 540 Li… (1346471 -460113)
10 Medway Medical Clinic-Providen… OH    Medw… 105 Sy… (1355202 -437291)
# ℹ 51 more rows

$OK
Simple feature collection with 68 features and 4 fields
Geometry type: POINT
Dimension:     XY
Bounding box:  xmin: -1880000 ymin: -1280000 xmax: 2160000 ymax: 313000
Projected CRS: NAD27 / US National Atlas Equal Area
# A tibble: 68 × 5
   practice                        state city  address          geometry
                                         
 1 OMNI South Harvard              OK    Tulsa 4720 S…  (365728 -980415)
 2 Warren Clinic Tower 950         OK    Tulsa 6600 S…  (367471 -983285)
 3 Cherokee Nation Wilma P. Manki… OK    Stil… Hwy. 5… (485525 -1004890)
 4 Warren Clinic Kelly 312         OK    Tulsa 6565 S…  (367493 -983210)
 5 Primary Care Associates, PLLC   OK    Bart… 4150 S…  (363467 -908434)
 6 Warren Clinic Tower 600         OK    Tulsa 6600 S…  (367471 -983285)
 7 OMNI South Memorial             OK    Tulsa 8115 S…  (370847 -985576)
 8 Innovative Family Medicine      OK    Wago… 1202 W…  (415760 -992811)
 9 Warren Clinic Owasso            OK    Owas… 13600 …  (375265 -959551)
10 Utica Park Clinic Broken Arrow… OK    Brok… 2617 S…  (378925 -987390)
# ℹ 58 more rows

$OR
Simple feature collection with 67 features and 4 fields
Geometry type: POINT
Dimension:     XY
Bounding box:  xmin: -1880000 ymin: -1280000 xmax: 2160000 ymax: 313000
Projected CRS: NAD27 / US National Atlas Equal Area
# A tibble: 67 × 5
   practice                        state city  address          geometry
                                         
 1 St Charles Family Care - Siste… OR    Sist… 615 Ar… (-1689607 147809)
 2 Cascade Physicians, Northwest   OR    Port… 2222 N… (-1738814 306259)
 3 Springfield Family Physicians   OR    Spri… 2280 M… (-1806486 154724)
 4 LMG Northwest                   OR    Port… 1130 N… (-1737792 303854)
 5 Grande Ronde Hospital Regional… OR    La G… 506 4t… (-1400135 193110)
 6 Physicians Medical Center       OR    McMi… 254 NE… (-1783939 281239)
 7 The Doctors' Clinic             OR    Salem 5050 S… (-1786874 244642)
 8 Hillsboro Internal Medicine     OR    Hill… 364 SE… (-1759887 311232)
 9 LMG Canby                       OR    Canby 1433 S… (-1745468 277621)
10 Northwest Primary Care - Dwyer… OR    Milw… 10024 … (-1736290 296270)
# ℹ 57 more rows
…
