17 ESRD Group ETC Performance – Refactoring <b>provider</b><sup><i>2</i></sup>
…
PPA_PERIOD
6-month period during which the payments are
adjusted based on ETC Participants' performance in
each Measurement Year.

MY
12-month period for which achievement and
improvement on the home dialysis rate and
transplant rate are assessed for the purpose of
calculating ETC Participants' MPS and PPA.

Data

# A tibble: 421 × 31
   AGG_ID HRR_NUM_MY HDR_MY HDR_DNM_MY HDR_NUM_MY HD_NUM_MY SD_NUM_MY
                                  
 1 DF5698 12          0             NA         NA        NA        NA
 2 DF0368 22         10             NA         NA        NA        NA
 3 DF1214 22          2.44          NA         NA        NA        NA
 4 DF6486 21          0            178          0         0         0
 5 DF2496 80          0             NA         NA        NA        NA
 6 DF2368 80          0            396          0         0         0
 7 DF4436 80          0            701          0         0         0
 8 DF9276 280         0.444        225         NA        NA         0
 9 DF3832 139        19.4           NA         NA        NA        NA
10 DF2884 123         0             NA         NA        NA        NA
# ℹ 411 more rows
# ℹ 24 more variables: NOCD_NUM_MY , TR_MY_ACHSCR ,
#   TR_MY_IMPSCR , TWR_DNM_MY , TWR_NUM_MY , LDT_DNM_MY ,
#   LDT_NUM_MY , BENECNT_LDT_MY , HEI_HDR ,
#   HDR_DELIS_DIFF , HDR_DELIS_MY , HDR_DNM_DELIS_MY ,
#   HDR_NUM_DELIS_MY , HEI_TR , TR_DELIS_DIFF ,
#   TR_DELIS_MY , TWR_DNM_DELIS_MY , TWR_NUM_DELIS_MY , …
…
