21 Rural Health Clinics – Refactoring <b>provider</b><sup><i>2</i></sup>
…
[CSV] 2025 RHC Enrollments Q1 (  1.14M)
[CSV] 2025 RHC Additional NPIs Q1 (  3.66K)
[CSV] 2025 RHC Additional Addresses Q1 (  2.83K)
[PDF] 2025 RHC All Owners and Enrollments Data Guidance-2 (480K)
[PDF] 2025 RHC Enrollments Data Dictionary (336.09K)
[ZIP] 2025 RHC Change of Ownership (CHOW) Files Q1 (  1.41M)

Dictionary

Error in print_dict_list(dict_rhc_enroll): object 'dict_rhc_owners' not found

Data

# A tibble: 5,399 × 18
   enid      enid_state prov_code prov_desc npi   multi_npi ccn   pac   org_name
                                   
 1 O2002073… WA         00-17     PART A P… 1508…         0 5038… 0941… PALOUSE…
 2 O2002081… ND         00-17     PART A P… 1497…         0 3539… 0042… WEST RI…
 3 O2002081… ND         00-17     PART A P… 1760…         0 3539… 0042… WEST RI…
 4 O2002081… SD         00-17     PART A P… 1801…         0 4339… 0042… WEST RI…
 5 O2002081… ND         00-17     PART A P… 1831…         0 3539… 0042… WEST RI…
 6 O2002081… ND         00-17     PART A P… 1558…         0 3539… 0547… CARRING…
 7 O2002081… ND         00-17     PART A P… 1801…         0 3539… 0547… CARRING…
 8 O2002081… ND         00-17     PART A P… 1669…         0 3539… 0547… ST. JOS…
 9 O2002090… CA         00-17     PART A P… 1144…         0 0539… 0648… MEDICAL…
10 O2002091… IA         00-17     PART A P… 1295…         0 1634… 1153… REGIONA…
# ℹ 5,389 more rows
# ℹ 9 more variables: dba_name , inc_date , inc_state ,
#   org_type , prop_non , city , state , zip ,
#   address 
…
NON PROFIT – OWNER
Owner's organization type is non-profit.

OTHER TYPE – OWNER
Owner's organization type is not listed on the CMS
form.

OTHER TYPE TEXT – OWNER
Other type of owner's organization that is not
listed on the CMS form.

Data

# A tibble: 10,000 × 32
   enid            pac    org_name own_pac own_type own_asoc_date own_first_name
                                            
 1 O20020731000000 09411… PALOUSE… 185020… I        2000-03-21    SANDRA        
 2 O20020731000000 09411… PALOUSE… 185020… I        2000-03-21    SANDRA        
 3 O20020731000000 09411… PALOUSE… 741619… I        2003-01-21    WENDY         
 4 O20020813000023 00421… WEST RI… 024435… I        2012-09-15    LARRY         
 5 O20020813000023 00421… WEST RI… 307281… I        2016-04-04    MATTHEW       
 6 O20020813000023 00421… WEST RI… 307281… I        2016-04-04    MATTHEW       
 7 O20020813000023 00421… WEST RI… 357746… I        2014-09-15    ANTHONY       
 8 O20020813000023 00421… WEST RI… 498185… I        2014-11-21    NATHAN        
 9 O20020813000023 00421… WEST RI… 498185… I        2012-11-02    NATHAN        
10 O20020813000023 00421… WEST RI… 589081… I        2014-09-15    GARY          
# ℹ 9,990 more rows
# ℹ 25 more variables: own_middle_name , own_last_name ,
#   own_title , own_org_name , own_dba_name , own_city ,
#   own_state , own_zip , own_pct_owned , is_acq ,
#   is_corp , is_llc , is_supp , is_mgmt , is_staff ,
#   is_hold , is_firm , is_bank , is_consult ,
#   is_forprof , is_nonprof , own_other_type , …
…
