16 DRA HAC Measures – Refactoring <b>provider</b><sup><i>2</i></sup>
…
Footnote
Rate footnote: Data based on facility claims
submitted to CMS with reported discrepancies.

Start_Quarter
First Quarter of the DRA HAC measure's discharge
period.

End_Quarter
Last quarter of the DRA HAC measure's discharge
period.

Data

# A tibble: 2,048 × 6
   Provider_ID Measure       Rate Footnote Start_Quarter End_Quarter
                                      
 1 010001      Falls and T… 0.336 NA       3Q2021        2Q2023     
 2 010005      Falls and T… 0.319 NA       3Q2021        2Q2023     
 3 010006      Falls and T… 0.289 NA       3Q2021        2Q2023     
 4 010011      Falls and T… 1.27  NA       3Q2021        2Q2023     
 5 010016      Falls and T… 0.319 NA       3Q2021        2Q2023     
 6 010019      Falls and T… 0.301 NA       3Q2021        2Q2023     
 7 010023      Falls and T… 0.185 NA       3Q2021        2Q2023     
 8 010033      Falls and T… 0.68  NA       3Q2021        2Q2023     
 9 010035      Foreign Obj… 0.213 NA       3Q2021        2Q2023     
10 010035      Falls and T… 0.426 NA       3Q2021        2Q2023     
# ℹ 2,038 more rows
…
