8 AHRQ PSI-11 Measure Rates – Refactoring <b>provider</b><sup><i>2</i></sup>
…
Response

resp <- quick("ahqr_psi11", limit = 5000) |> 
  mtt(START_DATE = clock::date_parse(START_DATE, format = "%m/%d/%Y"),
      END_DATE = clock::date_parse(END_DATE, format = "%m/%d/%Y"),
      ADM_DISC = as.double(ADM_DISC),
      RATE = as.double(RATE),
      INTERVAL_LOWER_LIMIT= as.double(INTERVAL_LOWER_LIMIT),
      INTERVAL_HIGHER_LIMIT= as.double(INTERVAL_HIGHER_LIMIT))

resp

# A tibble: 3,319 × 9
   HOSP_ID ADM_DISC  RATE INTERVAL_LOWER_LIMIT INTERVAL_HIGHER_LIMIT
                                           
 1 010001      1763  9.86                 5.23                  14.5
 2 010005       218 17.6                  8                     27.2
 3 010006        NA NA                   NA                     NA  
 4 010007        57 11.4                  0                     23.4
 5 010008         2 NA                   NA                     NA  
 6 010011       791 15.4                  7.98                  22.9
 7 010012       127  9.61                 0                     19.6
 8 010016       629 11.7                  5.32                  18.1
 9 010018        30  9.22                 0                     20.1
10 010019         5 13.6                  0.42                  26.8
# ℹ 3,309 more rows
# ℹ 4 more variables: START_QUARTER , START_DATE ,
#   END_QUARTER , END_DATE 
…
