17 Geospatial – Refactoring Provider
…
rhc_enroll

#> # A tibble: 5,000 × 17
#>    npi       npi_multi ccn   pac   enid  enid_state org_name dba_name inc_date  
#>    <chr>     <chr>     <chr> <chr> <chr> <chr>      <chr>    <chr>    <date>    
#>  1 15088613… N         5038… 0941… O200… WA         PALOUSE… PALOUSE… 2000-03-21
#>  2 14978560… N         3539… 0042… O200… ND         WEST RI… BOWMAN … 1977-01-06
#>  3 17605703… N         3539… 0042… O200… ND         WEST RI… WEST RI… NA        
#>  4 18019879… N         4339… 0042… O200… SD         WEST RI… <NA>     1998-11-30
#>  5 18312861… N         3539… 0042… O200… ND         WEST RI… NEW ENG… 1977-01-26
#>  6 15583893… N         3539… 0547… O200… ND         CARRING… CHI ST … 1986-06-30
#>  7 18018116… N         3539… 0547… O200… ND         CARRING… CHI ST … 1950-10-02
#>  8 16694912… N         3539… 0547… O200… ND         ST. JOS… CHI ST … 1919-02-19
#>  9 11442076… N         0539… 0648… O200… CA         MEDICAL… <NA>     2002-07-01
#> 10 12958185… N         1634… 1153… O200… IA         REGIONA… LIME SP… NA        
#> # ℹ 4,990 more rows
#> # ℹ 8 more variables: inc_state <chr>, org_type <chr>, org_type_2 <chr>,
#> #   prop_non <chr>, address <chr>, city <chr>, state <chr>, zip <chr>
…
rhc_owners

#> # A tibble: 5,000 × 33
#>    pac        enid  org_name pac_owner org_name_owner entity role_code role_text
#>    <chr>      <chr> <chr>    <chr>     <chr>          <chr>      <int> <chr>    
#>  1 0941117907 O200… PALOUSE… 18502088… <NA>           I             34 5% OR GR…
#>  2 0941117907 O200… PALOUSE… 18502088… <NA>           I             40 CORPORAT…
#>  3 0941117907 O200… PALOUSE… 74161964… <NA>           I             42 W-2 MANA…
#>  4 0042127045 O200… WEST RI… 02443556… <NA>           I             41 CORPORAT…
#>  5 0042127045 O200… WEST RI… 30728119… <NA>           I             40 CORPORAT…
#>  6 0042127045 O200… WEST RI… 30728119… <NA>           I             42 W-2 MANA…
#>  7 0042127045 O200… WEST RI… 35774631… <NA>           I             41 CORPORAT…
#>  8 0042127045 O200… WEST RI… 49818590… <NA>           I             40 CORPORAT…
#>  9 0042127045 O200… WEST RI… 49818590… <NA>           I             42 W-2 MANA…
#> 10 0042127045 O200… WEST RI… 58908102… <NA>           I             41 CORPORAT…
#> # ℹ 4,990 more rows
#> # ℹ 25 more variables: association_date <date>, first_name <chr>,
#> #   middle_name <chr>, last_name <chr>, title <chr>, dba_name <chr>,
#> #   address <chr>, city <chr>, state <chr>, zip <chr>, ownership_pct <dbl>,
#> #   is_for_acq <int>, is_corp <int>, is_llc <int>, is_med_prov_supp <int>,
#> #   is_mgmt_serv_co <int>, is_med_staff_co <int>, is_holding_co <int>,
#> #   is_invest_firm <int>, is_fin_inst <int>, is_consult_firm <int>, …
…
rhc_nppes |> 
  slt(number, addresses) |> 
  unnest(addresses) |> 
  mtt(address = cheapr_if_else(cheapr::is_na(address_2), address_1, paste(address_1, address_2))) |> 
  slt(-address_1, -address_2, -address_type, -country_code, -country_name)

#> # A tibble: 168 × 8
#>    number    address_purpose city  state postal_code telephone_number fax_number
#>    <chr>     <chr>           <chr> <chr> <chr>       <chr>            <chr>     
#>  1 16397747… LOCATION        SYLV… GA    317912125   229-463-7071     833-606-0…
#>  2 16397747… MAILING         HARDY AR    725428002   <NA>             <NA>      
#>  3 11741046… LOCATION        HAWK… GA    310360000   478-845-4842     833-606-0…
#>  4 11741046… MAILING         HARDY AR    725428002   <NA>             870-856-2…
#>  5 15681005… LOCATION        BRUN… GA    315238285   870-856-1202     870-856-2…
#>  6 15681005… MAILING         HARDY AR    725428002   870-856-1202     866-500-4…
#>  7 18210178… MAILING         ALMA  GA    315102908   912-632-2952     912-632-8…
#>  8 18210178… LOCATION        ALMA  GA    315102908   912-632-2952     912-632-8…
#>  9 15588988… LOCATION        NICH… GA    31554       912-632-2952     <NA>      
#> 10 15588988… MAILING         ALMA  GA    315102922   912-632-8961     912-632-5…
#> # ℹ 158 more rows
#> # ℹ 1 more variable: address <chr>

rhc_nppes |> 
  slt(number, basic) |> 
  unnest_wider(basic)

#> # A tibble: 84 × 16
#>    number organization_name organizational_subpart enumeration_date last_updated
#>    <chr>  <chr>             <chr>                  <chr>            <chr>       
#>  1 16397… ACCESS MEDICAL C… NO                     2020-12-04       2021-10-06  
#>  2 11741… ACCESS MEDICAL C… NO                     2021-04-16       2022-09-13  
#>  3 15681… ACCESS MEDICAL C… NO                     2022-05-20       2024-02-27  
#>  4 18210… BACON COUNTY HEA… NO                     2006-07-19       2012-10-10  
#>  5 15588… BACON COUNTY HEA… NO                     2017-05-17       2018-05-22  
#>  6 17503… BOWDON- MT. ZION… YES                    2006-05-04       2022-02-21  
#>  7 14179… BOWDENMTZION PRI… NO                     2006-05-08       2022-03-21  
#>  8 15381… BOWDON- MT. ZION… NO                     2006-05-05       2023-02-28  
#>  9 18519… BURKE HOSPITAL C… NO                     2021-06-11       2022-10-03  
#> 10 16392… COFFEE REGIONAL … NO                     2007-02-13       2022-09-23  
#> # ℹ 74 more rows
#> # ℹ 11 more variables: certification_date <chr>, status <chr>,
#> #   authorized_official_first_name <chr>, authorized_official_last_name <chr>,
#> #   authorized_official_telephone_number <chr>,
#> #   authorized_official_title_or_position <chr>,
#> #   authorized_official_name_prefix <chr>,
#> #   authorized_official_name_suffix <chr>, …

rhc_nppes |> 
  slt(number, taxonomies) |> 
  unnest(taxonomies)

#> # A tibble: 143 × 7
#>    number     code       taxonomy_group              desc  state license primary
#>    <chr>      <chr>      <chr>                       <chr> <chr> <chr>   <lgl>  
#>  1 1639774714 207Q00000X "193200000X - Multi-Specia… Fami… <NA>  <NA>    FALSE  
#>  2 1639774714 261QR1300X ""                          Clin… <NA>  <NA>    TRUE   
#>  3 1174104657 207Q00000X "193200000X - Multi-Specia… Fami… <NA>  <NA>    FALSE  
#>  4 1174104657 261QR1300X ""                          Clin… <NA>  <NA>    TRUE   
#>  5 1568100519 207Q00000X "193200000X - Multi-Specia… Fami… <NA>  <NA>    FALSE  
#>  6 1568100519 261QR1300X ""                          Clin… <NA>  <NA>    TRUE   
#>  7 1821017831 282NR1301X ""                          Gene… <NA>  <NA>    TRUE   
#>  8 1558898882 282NR1301X ""                          Gene… <NA>  <NA>    FALSE  
#>  9 1558898882 363LF0000X "193200000X - Multi-Specia… Nurs… <NA>  <NA>    TRUE   
#> 10 1750339511 261QR1300X ""                          Clin… <NA>  <NA>    TRUE   
#> # ℹ 133 more rows
…
