21 rural_health – Refactoring <b>provider</b><sup><i>2</i></sup>
…
    is_llc = char_binary(is_llc),
    is_supplier = char_binary(is_supplier),
    is_management = char_binary(is_management),
    is_staffing = char_binary(is_staffing),
    is_holding = char_binary(is_holding),
    is_investment = char_binary(is_investment),
    is_financial = char_binary(is_financial),
    is_consulting = char_binary(is_consulting),
    is_forprofit = char_binary(is_forprofit),
    is_nonprofit = char_binary(is_nonprofit),
    is_other = char_binary(is_other)
  ) |> 
  roworder(role_code)

# A tibble: 5,000 × 34
   pac        enid  org_name pac_owner org_name_owner entity role_code role_text
   <chr>      <chr> <chr>    <chr>     <chr>          <fct>      <int> <chr>    
 1 0042127045 O200… WEST RI… 49818590… <NA>           I             25 CONTRACT…
 2 1153238977 O200… REGIONA… 92343828… <NA>           I             25 CONTRACT…
 3 1153238977 O200… REGIONA… 92343828… <NA>           I             25 CONTRACT…
 4 6406764018 O200… RUBY VA… 64061032… <NA>           I             25 CONTRACT…
 5 6406764018 O200… RUBY VA… 64061032… <NA>           I             25 CONTRACT…
 6 4486563061 O200… PALO AL… 97393764… <NA>           I             25 CONTRACT…
 7 2769391192 O200… MORTON … 43850199… <NA>           I             25 CONTRACT…
 8 7911816731 O200… SOUTHER… 27698119… <NA>           I             25 CONTRACT…
 9 1759291578 O200… THE COM… 17592915… <NA>           I             25 CONTRACT…
10 9436069267 O200… THE FAM… 34768064… <NA>           I             25 CONTRACT…
# ℹ 4,990 more rows
# ℹ 26 more variables: date_assoc <date>, first_name <chr>, middle_name <chr>,
#   last_name <chr>, title <chr>, dba_name <chr>, address <chr>, city <chr>,
#   state <chr>, zip <chr>, percentage_ownership <dbl>, prop_ownership <dbl>,
#   is_acquisition <int>, is_corporation <int>, is_llc <int>,
#   is_supplier <int>, is_management <int>, is_staffing <int>,
#   is_holding <int>, is_investment <int>, is_financial <int>, …
…
