12 affiliations – Refactoring Provider
…
affiliations(facility_ccn = 331302)

# A tibble: 194 × 8
   npi        pac        first    middle last  suffix facility_type facility_ccn
   <chr>      <chr>      <chr>    <chr>  <chr> <chr>  <fct>         <chr>       
 1 1003815184 4082693676 ARMIN    <NA>   AFSA… <NA>   Hospital      331302      
 2 1003845272 1759384035 LAURA    A      GREE… <NA>   Hospital      331302      
 3 1013910256 5890719371 JOSE     M      ACOS… <NA>   Hospital      331302      
 4 1043257819 0345243655 PAOLO    <NA>   FEDI  <NA>   Hospital      331302      
 5 1043397656 4183764558 ANTHONY  F      TRAM… <NA>   Hospital      331302      
 6 1043672140 7214229350 VANESSA  <NA>   FIOR… <NA>   Hospital      331302      
 7 1053863100 8729362207 MATTHEW  D      FARN… <NA>   Hospital      331302      
 8 1063409282 4284548819 NIDAL    <NA>   MAKH… <NA>   Hospital      331302      
 9 1063536886 0941434435 ELENA    <NA>   BOLA… <NA>   Hospital      331302      
10 1063851673 1557630613 TERRENCE <NA>   O'CO… <NA>   Hospital      331302      
# ℹ 184 more rows
…
beth

$hospitals
# A tibble: 2 × 20
  npi_org   pac_org enid_org enid_state facility_ccn organization specialty_code
  <chr>     <chr>   <chr>    <ord>      <chr>        <chr>        <chr>         
1 18917851… 357755… O201011… NY         331302       ELIZABETHTO… 00-85         
2 14070615… 357755… O202208… NY         33Z302       ELIZABETHTO… 00-85         
# ℹ 13 more variables: specialty <chr>, incorp_date <date>, incorp_state <ord>,
#   structure <chr>, address <chr>, city <chr>, state <ord>, zip <chr>,
#   location_type <chr>, registration <fct>, multi_npi <lgl>,
#   reh_conversion <lgl>, subgroup <fct>

$affiliations
# A tibble: 197 × 9
   npi     pac   first middle last  suffix facility_type facility_ccn parent_ccn
   <chr>   <chr> <chr> <chr>  <chr> <chr>  <fct>         <chr>        <chr>     
 1 100381… 4082… ARMIN <NA>   AFSA… <NA>   Hospital      331302       <NA>      
 2 100384… 1759… LAURA A      GREE… <NA>   Hospital      331302       <NA>      
 3 101391… 5890… JOSE  M      ACOS… <NA>   Hospital      331302       <NA>      
 4 104325… 0345… PAOLO <NA>   FEDI  <NA>   Hospital      331302       <NA>      
 5 104339… 4183… ANTH… F      TRAM… <NA>   Hospital      331302       <NA>      
 6 104367… 7214… VANE… <NA>   FIOR… <NA>   Hospital      331302       <NA>      
 7 105386… 8729… MATT… D      FARN… <NA>   Hospital      331302       <NA>      
 8 106340… 4284… NIDAL <NA>   MAKH… <NA>   Hospital      331302       <NA>      
 9 106353… 0941… ELENA <NA>   BOLA… <NA>   Hospital      331302       <NA>      
10 106385… 1557… TERR… <NA>   O'CO… <NA>   Hospital      331302       <NA>      
# ℹ 187 more rows
