9 providers() – Refactoring Provider
…
public <- public_catalog()

public

# A tibble: 139 × 22
   type       accessLevel accrualPeriodicity bureauCode contactPoint describedBy
   <chr>      <chr>       <chr>              <chr>      <list>       <chr>      
 1 dcat:Data… public      R/P1Y              009:38     <named list> https://da…
 2 dcat:Data… public      R/P1Y              009:38     <named list> https://da…
 3 dcat:Data… public      R/P1Y              009:38     <named list> https://da…
 4 dcat:Data… public      R/P1Y              009:38     <named list> https://da…
 5 dcat:Data… public      R/P1Y              009:38     <named list> https://da…
 6 dcat:Data… public      R/P1Y              009:38     <named list> https://da…
 7 dcat:Data… public      R/P1Y              009:38     <named list> https://da…
 8 dcat:Data… public      R/P1Y              009:38     <named list> https://da…
 9 dcat:Data… public      R/P1Y              009:38     <named list> https://da…
10 dcat:Data… public      R/P1Y              009:38     <named list> https://da…
# ℹ 129 more rows
# ℹ 16 more variables: dataQuality <lgl>, description <chr>,
#   distribution <list>, identifier <chr>, keyword <chr>, landingPage <chr>,
#   language <chr>, license <chr>, modified <chr>, programCode <chr>,
#   publisher <list>, references <chr>, temporal <chr>, theme <chr>,
#   title <chr>, describedByType <chr>
…
