13 enrollees – Refactoring Provider
…
# A tibble: 1 × 11
  NPI        PECOS_ASCT_CNTL_ID ENRLMT_ID    PROVIDER_TYPE_CD PROVIDER_TYPE_DESC
  <chr>      <chr>              <chr>        <chr>            <chr>             
1 1134122260 2860305554         I2003111000… 14-41            PRACTITIONER - OP…
# ℹ 6 more variables: STATE_CD <chr>, FIRST_NAME <chr>, MDL_NAME <chr>,
#   LAST_NAME <chr>, ORG_NAME <chr>, GNDR_SW <chr>

enrollees(state = "GA", gender = "9")

Medicare Fee-For-Service Public Provider Enrollment 
  ==> Periodicity: Quarterly [R/P3M]
  ==> Last Modified: 2025-01-15

# A tibble: 121 × 11
   NPI        PECOS_ASCT_CNTL_ID ENRLMT_ID   PROVIDER_TYPE_CD PROVIDER_TYPE_DESC
   <chr>      <chr>              <chr>       <chr>            <chr>             
 1 1508822776 3476457953         I200311250… 14-77            PRACTITIONER - VA…
 2 1619914975 1557264553         I200401280… 14-11            PRACTITIONER - IN…
 3 1285670901 7012807977         I200403160… 14-11            PRACTITIONER - IN…
 4 1841207917 1456343961         I200404020… 14-02            PRACTITIONER - GE…
 5 1942275425 1658364039         I200404050… 14-93            PRACTITIONER - EM…
 6 1275645459 4789677840         I200404050… 14-38            PRACTITIONER - GE…
 7 1073608899 9638164619         I200404190… 14-66            PRACTITIONER - RH…
 8 1124147343 1850388026         I200404290… 14-65            PRACTITIONER - PH…
 9 1336246149 7911996392         I200405110… 14-16            PRACTITIONER - OB…
10 1891773792 7113917816         I200405140… 14-50            PRACTITIONER - NU…
# ℹ 111 more rows
# ℹ 6 more variables: STATE_CD <chr>, FIRST_NAME <chr>, MDL_NAME <chr>,
#   LAST_NAME <chr>, ORG_NAME <chr>, GNDR_SW <chr>

enrollees(state = "VT", gender = "F")

Medicare Fee-For-Service Public Provider Enrollment 
  ==> Periodicity: Quarterly [R/P3M]
  ==> Last Modified: 2025-01-15

# A tibble: 3,521 × 11
   NPI        PECOS_ASCT_CNTL_ID ENRLMT_ID   PROVIDER_TYPE_CD PROVIDER_TYPE_DESC
   <chr>      <chr>              <chr>       <chr>            <chr>             
 1 1063585701 6709799083         I200311120… 14-80            PRACTITIONER - CL…
 2 1497787824 8527972181         I200311180… 14-68            PRACTITIONER - CL…
 3 1700832086 4587578158         I200311180… 14-16            PRACTITIONER - OB…
 4 1295846590 8628972163         I200311250… 14-64            PRACTITIONER - QU…
 5 1568522506 7012811458         I200311260… 14-65            PRACTITIONER - PH…
 6 1457454894 1951206820         I200312040… 14-46            PRACTITIONER - EN…
 7 1174631915 0042116378         I200312090… 14-08            PRACTITIONER - FA…
 8 1841302593 7214834480         I200312160… 14-90            PRACTITIONER - ME…
 9 1215984018 5193625325         I200401130… 14-80            PRACTITIONER - CL…
10 1902877954 9133021538         I200401260… 14-50            PRACTITIONER - NU…
# ℹ 3,511 more rows
# ℹ 6 more variables: STATE_CD <chr>, FIRST_NAME <chr>, MDL_NAME <chr>,
#   LAST_NAME <chr>, ORG_NAME <chr>, GNDR_SW <chr>
