1 API FAQ – Refactoring Provider
…
Within dataset, there is an array called distribution which contains all dataset versions, in all available formats:

distribution <- data_json |> 
  pull(dataset) |> 
  pluck(1) |> 
  select(distribution) |> 
  unnest(distribution)

distribution

# A tibble: 3,897 × 10
   `@type`   format accessURL resourcesAPI description title modified           
   <chr>     <chr>  <chr>     <chr>        <chr>       <chr> <dttm>             
 1 dcat:Dis… API    https://… https://dat… latest      Acco… 2024-01-29 00:00:00
 2 dcat:Dis… <NA>   <NA>      https://dat… <NA>        Acco… 2024-01-29 00:00:00
 3 dcat:Dis… API    https://… https://dat… <NA>        Acco… 2024-01-29 00:00:00
 4 dcat:Dis… <NA>   <NA>      https://dat… <NA>        Acco… 2023-03-06 00:00:00
 5 dcat:Dis… API    https://… https://dat… <NA>        Acco… 2023-03-06 00:00:00
 6 dcat:Dis… <NA>   <NA>      https://dat… <NA>        Acco… 2022-01-26 00:00:00
 7 dcat:Dis… API    https://… https://dat… <NA>        Acco… 2022-01-26 00:00:00
 8 dcat:Dis… <NA>   <NA>      https://dat… <NA>        Acco… 2022-01-27 00:00:00
 9 dcat:Dis… API    https://… https://dat… <NA>        Acco… 2022-01-27 00:00:00
10 dcat:Dis… <NA>   <NA>      https://dat… <NA>        Acco… 2022-01-27 00:00:00
# ℹ 3,887 more rows
# ℹ 3 more variables: temporal <chr>, downloadURL <chr>, mediaType <chr>
…
