2 Provider API – Refactoring Provider
…
nhome0$count

[1] 12130

nhome0$results |> tibble()

# A tibble: 2,000 × 103
   cms_certification_nu…¹ provider_name provider_address citytown state zip_code
   <chr>                  <chr>         <chr>            <chr>    <chr> <chr>   
 1 015009                 BURNS NURSIN… 701 MONROE STRE… RUSSELL… AL    35653   
 2 015010                 COOSA VALLEY… 260 WEST WALNUT… SYLACAU… AL    35150   
 3 015012                 HIGHLANDS HE… 380 WOODS COVE … SCOTTSB… AL    35768   
 4 015014                 EASTVIEW REH… 7755 FOURTH AVE… BIRMING… AL    35206   
 5 015015                 PLANTATION M… 6450 OLD TUSCAL… MC CALLA AL    35111   
 6 015019                 MERRY WOOD L… 280 MT HEBRON R… ELMORE   AL    36025   
 7 015024                 LIMESTONE NU… 1600 WEST HOBBS… ATHENS   AL    35611   
 8 015027                 WETUMPKA HEA… 1825 HOLTVILLE … WETUMPKA AL    36092   
 9 015031                 MITCHELL-HOL… 805 FLAGG CIRCLE FLORENCE AL    35631   
10 015032                 DIVERSICARE … 1701 NORTH ALST… FOLEY    AL    36535   
# ℹ 1,990 more rows
# ℹ abbreviated name: ¹​cms_certification_number_ccn
# ℹ 97 more variables: telephone_number <chr>, provider_ssa_county_code <chr>,
#   countyparish <chr>, ownership_type <chr>, number_of_certified_beds <chr>,
#   average_number_of_residents_per_day <chr>,
#   average_number_of_residents_per_day_footnote <chr>, provider_type <chr>,
#   provider_resides_in_hospital <chr>, legal_business_name <chr>, …
…
nhome1$count

[1] 12130

nhome1$results |> tibble()

# A tibble: 2,000 × 103
   cms_certification_nu…¹ provider_name provider_address citytown state zip_code
   <chr>                  <chr>         <chr>            <chr>    <chr> <chr>   
 1 115418                 PRUITTHEALTH… 521 CABINESS RO… FORSYTH  GA    31029   
 2 115419                 OAKS - ATHEN… 490 KATHWOOD DR  ATHENS   GA    30607   
 3 115421                 WOODSTOCK NU… 105 ARNOLD MILL… WOODSTO… GA    30188   
 4 115422                 ROSWELL NURS… 1109 GREEN STRE… ROSWELL  GA    30075   
 5 115423                 CHESTNUT RID… 125 SAMARITAN D… CUMMING  GA    30040   
 6 115424                 LAKE CROSSIN… 6698 WASHINGTON… APPLING  GA    30802   
 7 115427                 THOMASVILLE … 120 SKYLINE DRI… THOMASV… GA    31757   
 8 115429                 CORDELE HEAL… 1106 NORTH 4TH … CORDELE  GA    31015   
 9 115430                 SUMMERHILL E… 500 STANLEY STR… PERRY    GA    31069   
10 115431                 HARALSON NSG… 315 FIELD STREET BREMEN   GA    30110   
# ℹ 1,990 more rows
# ℹ abbreviated name: ¹​cms_certification_number_ccn
# ℹ 97 more variables: telephone_number <chr>, provider_ssa_county_code <chr>,
#   countyparish <chr>, ownership_type <chr>, number_of_certified_beds <chr>,
#   average_number_of_residents_per_day <chr>,
#   average_number_of_residents_per_day_footnote <chr>, provider_type <chr>,
#   provider_resides_in_hospital <chr>, legal_business_name <chr>, …
…
$format
[1] "json"

$rowIds
[1] FALSE

nhomegt3$count

[1] 5174

nhomegt3$results |> tibble()

# A tibble: 2,000 × 2
   state overall_rating
   <chr> <chr>         
 1 AL    4             
 2 AL    4             
 3 AL    5             
 4 AL    5             
 5 AL    5             
 6 AL    4             
 7 AL    5             
 8 AL    4             
 9 AL    4             
10 AL    5             
# ℹ 1,990 more rows
…
x |> 
  tibble() |> 
  mutate(across(where(is.character),  ~ na_if(.x, ""))) |> 
  remove_all_na()

# A tibble: 234 × 17
   accessLevel landingPage   bureauCode issued `@type` modified released keyword
   <chr>       <chr>         <list>     <chr>  <chr>   <chr>    <chr>    <list> 
 1 public      https://data… <chr [1]>  2020-… dcat:D… 2024-12… 2024-10… <chr>  
 2 public      https://data… <chr [1]>  2020-… dcat:D… 2024-12… 2024-10… <chr>  
 3 public      https://data… <chr [1]>  2020-… dcat:D… 2024-12… 2024-10… <chr>  
 4 public      https://data… <chr [1]>  2020-… dcat:D… 2024-12… 2024-10… <chr>  
 5 public      https://data… <chr [1]>  2020-… dcat:D… 2024-12… 2024-10… <chr>  
 6 public      https://data… <chr [1]>  2024-… dcat:D… 2024-09… 2024-10… <chr>  
 7 public      https://data… <chr [1]>  2024-… dcat:D… 2024-09… 2024-10… <chr>  
 8 public      https://data… <chr [1]>  2024-… dcat:D… 2024-09… 2024-10… <chr>  
 9 public      https://data… <chr [1]>  2024-… dcat:D… 2024-11… 2024-11… <chr>  
10 public      https://data… <chr [1]>  2024-… dcat:D… 2024-11… 2024-11… <chr>  
# ℹ 224 more rows
# ℹ 9 more variables: contactPoint <df[,4]>, publisher <df[,2]>,
#   identifier <chr>, description <chr>, title <chr>, programCode <list>,
#   distribution <list>, theme <list>, archiveExclude <lgl>
…
