Appendix C: {bslib} Experiments – Refactoring <b>provider</b><sup><i>2</i></sup>
…
START_DATE
First date of PSI-11 measure's performance period.

END_QUARTER
Last quarter of PSI-11 measure's performance
period.

END_DATE
Last date of PSI-11 measure's performance period.

Data

# A tibble: 3,018 × 9
   HOSP_ID ADM_DISC  RATE INTERVAL_LOWER_LIMIT INTERVAL_HIGHER_LIMIT
                                           
 1 010001      1763  9.86                 5.23                  14.5
 2 010005       218 17.6                  8                     27.2
 3 010007        57 11.4                  0                     23.4
 4 010011       791 15.4                  7.98                  22.9
 5 010012       127  9.61                 0                     19.6
 6 010016       629 11.7                  5.32                  18.1
 7 010018        30  9.22                 0                     20.1
 8 010019         5 13.6                  0.42                  26.8
 9 010021       139 24.1                 13.8                   34.4
10 010022         4 13.3                  0.28                  26.4
# ℹ 3,008 more rows
# ℹ 4 more variables: START_QUARTER , START_DATE ,
#   END_QUARTER , END_DATE 
…
