3 Open Payments API – Refactoring Provider
…
$summary_year
# A tibble: 36 × 7
    year title            description modified   temporal identifier downloadURL
   <int> <chr>            <chr>       <date>     <chr>    <chr>      <chr>      
 1  2023 2023 payments g… This datas… 2025-01-30 2023-01… https://o… https://do…
 2  2023 2023 payments g… This datas… 2025-01-30 2023-01… https://o… https://do…
 3  2023 2023 payments g… This datas… 2025-01-30 2023-01… https://o… https://do…
 4  2023 2023 payments g… This datas… 2025-01-30 2023-01… https://o… https://do…
 5  2023 2023 state paym… Groups pay… 2025-01-30 2023-01… https://o… https://do…
 6  2022 2022 payments g… This datas… 2025-01-30 2022-01… https://o… https://do…
 7  2022 2022 payments g… This datas… 2025-01-30 2022-01… https://o… https://do…
 8  2022 2022 payments g… This datas… 2025-01-30 2022-01… https://o… https://do…
 9  2022 2022 payments g… This datas… 2025-01-30 2022-01… https://o… https://do…
10  2022 2022 state paym… Groups pay… 2025-01-30 2022-01… https://o… https://do…
# ℹ 26 more rows
…
