19 DCAT Metadata Schema – Refactoring Provider
…
      "bureauName",
      "agencyCode",
      "bureauCode",
      "treasuryCode",
      "cgacCode"
    )
  ) |>
  mutate(
    agencyCode   = str_pad(agencyCode, width = 3, pad = "0"),
    bureauCode   = str_pad(bureauCode, width = 2, pad = "0"),
    treasuryCode = str_pad(treasuryCode, width = 2, pad = "0"),
    cgacCode     = str_pad(cgacCode, width = 3, pad = "0")
  )

# A tibble: 368 × 6
   agencyName         bureauName     agencyCode bureauCode treasuryCode cgacCode
   <chr>              <chr>          <chr>      <chr>      <chr>        <chr>   
 1 Legislative Branch Senate         001        05         00           000     
 2 Legislative Branch House of Repr… 001        10         00           000     
 3 Legislative Branch Joint Items    001        11         00           000     
 4 Legislative Branch Capitol Police 001        13         02           002     
 5 Legislative Branch Office of Com… 001        12         09           009     
 6 Legislative Branch Congressional… 001        14         08           008     
 7 Legislative Branch Architect of … 001        15         01           001     
 8 Legislative Branch Botanic Garden 001        18         09           009     
 9 Legislative Branch Library of Co… 001        25         03           003     
10 Legislative Branch Government Pr… 001        30         04           004     
# ℹ 358 more rows
…
    ProgramCodePODFormat                = col_character()
  )
) |>
  setNames(
    c(
      "agencyName",
      "programName",
      "additionalInfo",
      "agencyCode",
      "programCode",
      "programCodePODfmt"
    )
  )

# A tibble: 1,554 × 6
   agencyName                programName   additionalInfo agencyCode programCode
   <chr>                     <chr>         <chr>          <chr>      <chr>      
 1 Department of Agriculture Rural Busine… <NA>           005        005-001    
 2 Department of Agriculture Rural Busine… <NA>           005        005-002    
 3 Department of Agriculture Energy Assis… <NA>           005        005-003    
 4 Department of Agriculture Distance Lea… <NA>           005        005-004    
 5 Department of Agriculture Rural Electr… <NA>           005        005-005    
 6 Department of Agriculture Rural Water … <NA>           005        005-006    
 7 Department of Agriculture Single Famil… <NA>           005        005-007    
 8 Department of Agriculture Multi-Family… <NA>           005        005-008    
 9 Department of Agriculture Farm labor H… <NA>           005        005-009    
10 Department of Agriculture Rental Assis… <NA>           005        005-010    
# ℹ 1,544 more rows
# ℹ 1 more variable: programCodePODfmt <chr>
…
