15 Keyword Groups – Refactoring Provider
…
prov <- catalog_provider()

prov

$dialysis_facilities
# A tibble: 23 × 11
   title         description keyword issued     modified   released   identifier
   <chr>         <chr>       <chr>   <date>     <date>     <date>     <chr>     
 1 Dialysis Fac… A list of … Qualit… 2020-03-14 2024-12-21 2025-01-15 23ew-n7w9 
 2 Dialysis Fac… National a… Qualit… 2020-03-14 2024-12-21 2025-01-15 2rkq-ygai 
 3 Dialysis Fac… State aver… Qualit… 2020-03-14 2024-12-21 2025-01-15 2fpu-cgbb 
 4 ESRD QIP - C… This datas… Linkin… 2021-01-20 2024-12-03 2025-01-15 clinical_…
 5 ESRD QIP - C… This datas… Linkin… 2021-01-20 2024-12-03 2025-01-15 complete_…
 6 ESRD QIP - C… This datas… Linkin… 2025-01-15 2024-12-03 2025-01-15 covid-19_…
 7 ESRD QIP - D… This datas… Linkin… 2021-01-20 2024-12-03 2025-01-15 ktv_compr…
 8 ESRD QIP - F… This table… Linkin… 2021-01-20 2024-12-03 2025-01-15 footnotes 
 9 ESRD QIP - H… This datas… Linkin… 2021-01-20 2024-12-03 2025-01-15 hypercalc…
10 ESRD QIP - I… This datas… Linkin… 2021-01-20 2024-12-03 2025-01-15 qip_ich_c…
# ℹ 13 more rows
# ℹ 4 more variables: dictionary <chr>, downloadurl <chr>, contact <glue>,
#   landing <chr>
…
$hospitals
# A tibble: 74 × 11
   title         description keyword issued     modified   released   identifier
   <chr>         <chr>       <chr>   <date>     <date>     <date>     <chr>     
 1 Ambulatory S… A list of … Ambula… 2024-10-10 2025-01-15 2025-02-19 4jcv-atw7 
 2 Ambulatory S… This file … Ambula… 2024-10-10 2025-01-15 2025-02-19 wue8-3vwe 
 3 Ambulatory S… This file … Ambula… 2024-10-10 2025-01-15 2025-02-19 axe7-s95e 
 4 CMS Medicare… This data … Compli… 2020-12-10 2025-01-08 2025-02-19 muwa-iene 
 5 Complication… Complicati… Compli… 2023-07-05 2025-01-08 2025-02-19 ynj2-r877 
 6 Complication… Complicati… Compli… 2020-12-10 2025-01-08 2025-02-19 qqw3-t4ie 
 7 Complication… Complicati… Compli… 2020-12-10 2025-01-08 2025-02-19 bs2r-24vh 
 8 Complication… Prospectiv… Cancer… 2024-07-31 2025-01-08 2025-02-19 z8ax-x9j1 
 9 Complication… Prospectiv… Nation… 2024-07-31 2025-01-08 2025-02-19 jfnd-nl7s 
10 Comprehensiv… Comprehens… Compre… 2020-12-10 2025-01-08 2025-02-19 tqkv-mgxq 
# ℹ 64 more rows
# ℹ 4 more variables: dictionary <chr>, downloadurl <chr>, contact <glue>,
#   landing <chr>
…
$physician_office_visit_costs
# A tibble: 85 × 11
   title         description keyword issued     modified   released   identifier
   <chr>         <chr>       <chr>   <date>     <date>     <date>     <chr>     
 1 Addiction Me… Returns ad… Addict… 2024-08-05 2024-08-05 2024-08-08 3614-1eef 
 2 Advanced Hea… Returns ad… Advanc… 2024-08-05 2024-08-05 2024-08-08 bdd5-4a04 
 3 Allergy/ Imm… Returns al… Allerg… 2024-08-05 2024-08-05 2024-08-08 4269-8a74 
 4 Anesthesiolo… Returns an… Anesth… 2024-08-05 2024-08-05 2024-08-08 2fbd-6172 
 5 Audiologist … Returns au… Audiol… 2024-08-05 2024-08-05 2024-08-08 e491-a466 
 6 Cardiac Surg… Returns ca… Cardia… 2024-08-05 2024-08-05 2024-08-08 075a-d487 
 7 Cardiology O… Returns ca… Cardio… 2024-08-05 2024-08-05 2024-08-08 3f64-129e 
 8 Certified Cl… Returns ce… Certif… 2024-08-05 2024-08-05 2024-08-08 ea2d-9467 
 9 Certified Nu… Returns ce… Certif… 2024-08-05 2024-08-05 2024-08-08 9873-722a 
10 Certified Re… Returns ce… Certif… 2024-08-05 2024-08-05 2024-08-08 3a83-ee2d 
# ℹ 75 more rows
# ℹ 4 more variables: dictionary <chr>, downloadurl <chr>, contact <glue>,
#   landing <chr>
…
dataset

# A tibble: 139 × 13
   title  theme keyword description periodicity modified   temporal distribution
   <chr>  <chr> <chr>   <chr>       <chr>       <date>     <chr>    <list>      
 1 ACO R… Medi… Medica… "The Accou… Annually [… 2024-01-12 2021-01… <df>        
 2 ACO R… Medi… Medica… "Accountab… Annually [… 2024-01-12 2021-01… <df>        
 3 ACO R… Medi… Medica… "The Accou… Annually [… 2024-01-12 2021-01… <df>        
 4 ACO R… Medi… Medica… "The Accou… Annually [… 2024-01-12 2021-01… <df>        
 5 Accou… Medi… Medica… "The Accou… Annually [… 2025-01-15 2014-01… <df>        
 6 Accou… Medi… Medica… "The Accou… Annually [… 2025-01-15 2017-01… <df>        
 7 Accou… Medi… Medica… "The Accou… Annually [… 2025-01-15 2014-01… <df>        
 8 Advan… Medi… Medica… "The Advan… Annually [… 2024-01-29 2024-01… <df>        
 9 Agenc… Medi… Medica… "The Agenc… Annually [… 2020-12-08 2015-01… <df>        
10 CMS P… Medi… Nation… "The CMS P… Annually [… 2023-03-06 2013-01… <df [9 × 7]>
# ℹ 129 more rows
# ℹ 5 more variables: identifier <chr>, contact <list>, dictionary <chr>,
#   landingPage <chr>, references <chr>
…
dataset |> 
  filter(stri_detect_regex(
    title, 
    "by Geography|by Provider|by Referring|by Drug|Physician/Supplier Procedure Summary|Hospital Provider Cost Report"
    ))

# A tibble: 22 × 13
   title  theme keyword description periodicity modified   temporal distribution
   <chr>  <chr> <chr>   <chr>       <chr>       <date>     <chr>    <list>      
 1 Hospi… Medi… Medica… The Hospit… Annually [… 2024-10-23 2011-01… <df>        
 2 Medic… Medi… Nation… The Medica… Annually [… 2024-10-11 2022-01… <df>        
 3 Medic… Medi… Medica… The Medica… Annually [… 2024-06-13 2022-01… <df>        
 4 Medic… Medi… Nation… The Medica… Annually [… 2024-06-04 2014-01… <df>        
 5 Medic… Medi… Medica… The Medica… Annually [… 2024-06-04 2014-01… <df>        
 6 Medic… Medi… Medica… The Medica… Annually [… 2024-06-04 2014-01… <df>        
 7 Medic… Medi… Nation… The Medica… Annually [… 2024-06-04 2013-01… <df>        
 8 Medic… Medi… Medica… The Medica… Annually [… 2024-06-04 2013-01… <df>        
 9 Medic… Medi… Medica… The Medica… Annually [… 2024-06-04 2013-01… <df>        
10 Medic… Medi… Nation… The Medica… Annually [… 2024-06-04 2015-01… <df>        
# ℹ 12 more rows
# ℹ 5 more variables: identifier <chr>, contact <list>, dictionary <chr>,
#   landingPage <chr>, references <chr>
…
dataset |> 
  filter(stri_detect_regex(
    title, 
    "CMS Program Statistics"
    ))

# A tibble: 21 × 13
   title  theme keyword description periodicity modified   temporal distribution
   <chr>  <chr> <chr>   <chr>       <chr>       <date>     <chr>    <list>      
 1 CMS P… Medi… Nation… "The CMS P… Annually [… 2023-03-06 2013-01… <df [9 × 7]>
 2 CMS P… Medi… Nation… "The CMS P… Annually [… 2024-05-16 2016-01… <df [6 × 7]>
 3 CMS P… Medi… Nation… "The CMS P… Annually [… 2024-05-16 2016-01… <df [6 × 7]>
 4 CMS P… Medi… Nation… "The CMS P… Annually [… 2024-05-24 2016-01… <df [6 × 7]>
 5 CMS P… Medi… Nation… "The CMS P… Annually [… 2024-05-16 2016-01… <df [6 × 7]>
 6 CMS P… Medi… Nation… "The CMS P… Annually [… 2023-03-06 2013-01… <df [9 × 7]>
 7 CMS P… Medi… Nation… "The Medic… Annually [… 2023-06-12 2013-01… <df [9 × 7]>
 8 CMS P… Medi… Nation… "The CMS P… Annually [… 2023-03-06 2013-01… <df [9 × 7]>
 9 CMS P… Medi… Nation… "The CMS P… Annually [… 2023-03-06 2013-01… <df [9 × 7]>
10 CMS P… Medi… Nation… "The CMS P… Annually [… 2023-03-06 2013-01… <df [9 × 7]>
# ℹ 11 more rows
# ℹ 5 more variables: identifier <chr>, contact <list>, dictionary <chr>,
#   landingPage <chr>, references <chr>

dataset |> 
  filter(stri_detect_regex(
    title, 
    "^(Federally Qualified Health Center|Rural Health Clinic|Home Health Agency|Hospice|Skilled Nursing Facility|Long-Term Care Facility|Hospital|Home Infusion)"
    ))

# A tibble: 23 × 13
   title  theme keyword description periodicity modified   temporal distribution
   <chr>  <chr> <chr>   <chr>       <chr>       <date>     <chr>    <list>      
 1 Feder… Medi… Medica… The Federa… Quarterly … 2025-01-15 2023-10… <df>        
 2 Feder… Medi… Medica… The Federa… Quarterly … 2025-01-15 2023-10… <df>        
 3 Home … Medi… Medica… The Home H… Quarterly … 2025-01-15 2023-04… <df>        
 4 Home … Medi… Medica… The Home H… Annually [… 2024-10-25 2020-01… <df>        
 5 Home … Medi… Medica… The Home H… Quarterly … 2025-01-15 2023-04… <df>        
 6 Home … Medi… States… The Home I… Biweekly [… 2025-01-07 2023-05… <df>        
 7 Hospi… Medi… Medica… The  Hospi… Quarterly … 2025-01-15 2023-04… <df>        
 8 Hospi… Medi… Medica… The Hospic… Quarterly … 2025-01-15 2023-04… <df>        
 9 Hospi… Medi… Medica… The Hospit… Monthly [R… 2025-01-15 2022-11… <df>        
10 Hospi… Medi… Medica… The Hospit… Quarterly … 2025-01-15 2022-01… <df>        
# ℹ 13 more rows
# ℹ 5 more variables: identifier <chr>, contact <list>, dictionary <chr>,
#   landingPage <chr>, references <chr>
…
