23 Summary State – Refactoring <b>provider</b><sup><i>2</i></sup>
…
23  Summary State

State Level Payment Total and Averages for all Years

Metadata

    [ROWS] 2765 
   [PAGES] 6 
  [FIELDS] 28 
[MODIFIED] 2025-01-30 
[DOWNLOAD] https://download.cms.gov/openpayments/SMRY_RPTS_P01302025_01212025/PBLCTN_STATE_SMRY_P01302025_01212025-joined.csv 

Data

# A tibble: 2,765 × 28
   country_code country_name  state_code state_name  payment_type recipient_type
                                                  
 1 US           United States AA         Armed Forc… Research     Covered Recip…
 2 US           United States AE         Armed Forc… Research     Covered Recip…
 3 US           United States AK         Alaska      Research     Covered Recip…
 4 US           United States AL         Alabama     Research     Covered Recip…
 5 US           United States AP         Armed Forc… Research     Covered Recip…
 6 US           United States AR         Arkansas    Research     Covered Recip…
 7 US           United States AS         American S… Research     Covered Recip…
 8 US           United States AZ         Arizona     Research     Covered Recip…
 9 US           United States CA         California  Research     Covered Recip…
10 US           United States CO         Colorado    Research     Covered Recip…
# ℹ 2,755 more rows
# ℹ 22 more variables: program_year , total_number_of_physicians ,
#   total_number_of_non_physician_practitioners ,
#   total_number_of_teaching_hospitals ,
#   total_payment_amount_physician ,
#   total_payment_amount_non_physician_practitioner ,
#   total_payment_amount_teaching_hospital , …
…
