21 Summary Dashboard – Refactoring <b>provider</b><sup><i>2</i></sup>
…
21  Summary Dashboard

Metadata

    [ROWS] 90 
  [FIELDS] 10 
[MODIFIED] 2025-01-30 
[DOWNLOAD] https://download.cms.gov/openpayments/SMRY_RPTS_P01302025_01212025/PBLCTN_DSHBRD_P01302025_01212025.csv 

Data

# A tibble: 90 × 10
   dashboard_row_number data_metrics     py_2017 py_2018 py_2019 py_2020 py_2021
                                             
 1 2                    Total Dollar Am… 998344… 109882… 118794… 100519… 124674…
 2 3                    Total Dollar Am… 296470… 311980… 371116… 218672… 325478…
 3 4                    Total Dollar Am… 160510… 231246… 748979… 184671… 237104…
 4 5                    Total Dollar Am… 296309… 311749… 371041… 218487… 325240…
 5 6                    Total Dollar Am… 594550… 621907… 654725… 648136… 766416…
 6 7                    Total Dollar Am… 139533… 155362… 176525… 169179… 174644…
 7 8                    Total Dollar Am… 455016… 466545… 478199… 478957… 591771…
 8 9                    Total Dollar Am… 466174… 477411… 488186… 487109… 599788…
 9 10                   Total Dollar Am… 455016… 466545… 478199… 478957… 591814…
10 11                   Total Dollar Am… 362794… 275792… 799696… 496954… 140845…
# ℹ 80 more rows
# ℹ 3 more variables: py_2022 , py_2023 , total 
…
  x$value <- mtt(
    x$value,
    metric = gsub("^Total value of interest of all Payment Records ", "", metric, perl = TRUE),
    metric = gsub("^-\\s", "", metric, perl = TRUE))

  x$dollar <- mtt(
    x$dollar,
    metric = gsub("^Total Dollar Amount of ", "", metric, perl = TRUE),
    metric = gsub("^all ", "", metric, perl = TRUE))
x

$count
$count$entity
# A tibble: 32 × 3
   year  metric                              count
 *                                 
 1 ALL   Companies [AM/GPO] Making Payments   2843
 2 2023  Companies [AM/GPO] Making Payments   1776
 3 2022  Companies [AM/GPO] Making Payments   1858
 4 2021  Companies [AM/GPO] Making Payments   1855
 5 2020  Companies [AM/GPO] Making Payments   1779
 6 2019  Companies [AM/GPO] Making Payments   1797
 7 2018  Companies [AM/GPO] Making Payments   1755
 8 2017  Companies [AM/GPO] Making Payments   1678
 9 ALL   NPPs with Payment Records          414900
10 2023  NPPs with Payment Records          309427
# ℹ 22 more rows

$count$record
# A tibble: 320 × 5
   year  type  entity                     status    count
 *                              
 1 ALL   All   NA                         NA     84035057
 2 ALL   All   Physician                  NA     65341949
 3 ALL   All   Non-Physician Practitioner NA     12787445
 4 ALL   All   Teaching Hospital          NA      1131236
 5 2023  All   NA                         NA     15639275
 6 2023  All   Physician                  NA      9630514
 7 2023  All   Non-Physician Practitioner NA      4976520
 8 2023  All   Teaching Hospital          NA       143632
 9 2022  All   NA                         NA     14277900
10 2022  All   Physician                  NA      9036995
# ℹ 310 more rows

$dollar
# A tibble: 35 × 9
   py_2017       py_2018    py_2019 py_2020 py_2021 py_2022 py_2023 total metric
                                   
 1 9983443884.20 109882560… 118794… 100519… 124674… 127965… 126890… 7243… Payme…
 2 2964700222.32 311980393… 371116… 218672… 325478… 380973… 327760… 2232… Payme…
 3 1605102.03    2312465.96 748979… 184671… 237104… 206960… 122548… 1217… Payme…
 4 2963095120.29 311749147… 371041… 218487… 325240… 380766… 327637… 2231… Payme…
 5 5945500870.57 621907659… 654725… 648136… 766416… 783691… 807165… 4876… Payme…
 6 1395333630.70 155362520… 176525… 169179… 174644… 171621… 157933… 1144… Payme…
 7 4550167239.87 466545139… 478199… 478957… 591771… 612070… 649231… 3731… Payme…
 8 4661745514.93 477411500… 488186… 487109… 599788… 619872… 656340… 3794… Payme…
 9 4550167239.87 466545139… 478199… 478957… 591814… 612112… 649284… 3731… Payme…
10 3627948.41    2757924.06 799696… 496954… 140845… 571428… 208709… 3404… Payme…
# ℹ 25 more rows
…
