9 Backend Preload – Refactoring Provider
…
$id
[1] "https://data.cms.gov/data.json"

$type
[1] "dcat:Catalog"

$conformsTo
[1] "https://project-open-data.cio.gov/v1.1/schema"

$describedBy
[1] "https://project-open-data.cio.gov/v1.1/schema/catalog.json"

$dataset
# A tibble: 139 × 21
   type       accessLevel accrualPeriodicity bureauCode contactPoint describedBy
   <chr>      <chr>       <chr>              <chr>      <list>       <chr>      
 1 dcat:Data… public      R/P1Y              009:38     <named list> https://da…
 2 dcat:Data… public      R/P1Y              009:38     <named list> https://da…
 3 dcat:Data… public      R/P1Y              009:38     <named list> https://da…
 4 dcat:Data… public      R/P1Y              009:38     <named list> https://da…
 5 dcat:Data… public      R/P1Y              009:38     <named list> https://da…
 6 dcat:Data… public      R/P1Y              009:38     <named list> https://da…
 7 dcat:Data… public      R/P1Y              009:38     <named list> https://da…
 8 dcat:Data… public      R/P1Y              009:38     <named list> https://da…
 9 dcat:Data… public      R/P1Y              009:38     <named list> https://da…
10 dcat:Data… public      R/P1Y              009:38     <named list> https://da…
# ℹ 129 more rows
# ℹ 15 more variables: dataQuality <lgl>, description <chr>, identifier <chr>,
#   keyword <chr>, landingPage <chr>, language <chr>, license <chr>,
#   modified <chr>, programCode <chr>, publisher <list>, references <chr>,
#   temporal <chr>, theme <chr>, title <chr>, describedByType <chr>

$distribution_latest
# A tibble: 112 × 8
   type        format accessURL resourcesAPI description title modified temporal
   <chr>       <chr>  <chr>     <chr>        <chr>       <chr> <chr>    <chr>   
 1 dcat:Distr… API    https://… https://dat… latest      Acco… 2025-01… 2025-01…
 2 dcat:Distr… API    https://… https://dat… latest      Acco… 2025-01… 2025-01…
 3 dcat:Distr… API    https://… https://dat… latest      ACO … 2024-01… 2021-01…
 4 dcat:Distr… API    https://… https://dat… latest      ACO … 2024-01… 2021-01…
 5 dcat:Distr… API    https://… https://dat… latest      ACO … 2024-01… 2021-01…
 6 dcat:Distr… API    https://… https://dat… latest      ACO … 2024-01… 2021-01…
 7 dcat:Distr… API    https://… https://dat… latest      Adva… 2024-01… 2024-01…
 8 dcat:Distr… API    https://… https://dat… latest      Agen… 2020-12… 2016-01…
 9 dcat:Distr… API    https://… https://dat… latest      Comp… 2021-01… 2020-01…
10 dcat:Distr… API    https://… https://dat… latest      Coun… 2024-12… 2023-01…
# ℹ 102 more rows

$distribution_api
# A tibble: 1,698 × 7
   type              format accessURL       resourcesAPI title modified temporal
   <chr>             <chr>  <chr>           <chr>        <chr> <chr>    <chr>   
 1 dcat:Distribution API    https://data.c… https://dat… Acco… 2025-01… 2025-01…
 2 dcat:Distribution API    https://data.c… https://dat… Acco… 2024-01… 2024-01…
 3 dcat:Distribution API    https://data.c… https://dat… Acco… 2023-03… 2023-01…
 4 dcat:Distribution API    https://data.c… https://dat… Acco… 2022-01… 2022-01…
 5 dcat:Distribution API    https://data.c… https://dat… Acco… 2022-01… 2021-01…
 6 dcat:Distribution API    https://data.c… https://dat… Acco… 2022-01… 2020-01…
 7 dcat:Distribution API    https://data.c… https://dat… Acco… 2024-01… 2019-01…
 8 dcat:Distribution API    https://data.c… https://dat… Acco… 2022-01… 2019-01…
 9 dcat:Distribution API    https://data.c… https://dat… Acco… 2022-01… 2018-01…
10 dcat:Distribution API    https://data.c… https://dat… Acco… 2022-01… 2017-01…
# ℹ 1,688 more rows

$distribution_csv
# A tibble: 1,676 × 7
   type              resourcesAPI  title modified temporal downloadURL mediaType
   <chr>             <chr>         <chr> <chr>    <chr>    <chr>       <chr>    
 1 dcat:Distribution https://data… Acco… 2025-01… 2025-01… https://da… text/csv 
 2 dcat:Distribution https://data… Acco… 2024-01… 2024-01… https://da… text/csv 
 3 dcat:Distribution https://data… Acco… 2023-03… 2023-01… https://da… text/csv 
 4 dcat:Distribution https://data… Acco… 2022-01… 2022-01… https://da… text/csv 
 5 dcat:Distribution https://data… Acco… 2025-01… 2025-01… https://da… text/csv 
 6 dcat:Distribution https://data… Acco… 2024-04… 2024-01… https://da… text/csv 
 7 dcat:Distribution https://data… Acco… 2023-03… 2023-01… https://da… text/csv 
 8 dcat:Distribution https://data… Acco… 2022-01… 2022-01… https://da… text/csv 
 9 dcat:Distribution https://data… ACO … 2024-01… 2021-01… https://da… text/csv 
10 dcat:Distribution https://data… ACO … 2024-01… 2021-01… https://da… text/csv 
# ℹ 1,666 more rows
…
9.1.2 Distribution

"latest"

main[["distribution_latest"]]

# A tibble: 112 × 8
   type        format accessURL resourcesAPI description title modified temporal
   <chr>       <chr>  <chr>     <chr>        <chr>       <chr> <chr>    <chr>   
 1 dcat:Distr… API    https://… https://dat… latest      Acco… 2025-01… 2025-01…
 2 dcat:Distr… API    https://… https://dat… latest      Acco… 2025-01… 2025-01…
 3 dcat:Distr… API    https://… https://dat… latest      ACO … 2024-01… 2021-01…
 4 dcat:Distr… API    https://… https://dat… latest      ACO … 2024-01… 2021-01…
 5 dcat:Distr… API    https://… https://dat… latest      ACO … 2024-01… 2021-01…
 6 dcat:Distr… API    https://… https://dat… latest      ACO … 2024-01… 2021-01…
 7 dcat:Distr… API    https://… https://dat… latest      Adva… 2024-01… 2024-01…
 8 dcat:Distr… API    https://… https://dat… latest      Agen… 2020-12… 2016-01…
 9 dcat:Distr… API    https://… https://dat… latest      Comp… 2021-01… 2020-01…
10 dcat:Distr… API    https://… https://dat… latest      Coun… 2024-12… 2023-01…
# ℹ 102 more rows

"API"

main[["distribution_api"]]

# A tibble: 1,698 × 7
   type              format accessURL       resourcesAPI title modified temporal
   <chr>             <chr>  <chr>           <chr>        <chr> <chr>    <chr>   
 1 dcat:Distribution API    https://data.c… https://dat… Acco… 2025-01… 2025-01…
 2 dcat:Distribution API    https://data.c… https://dat… Acco… 2024-01… 2024-01…
 3 dcat:Distribution API    https://data.c… https://dat… Acco… 2023-03… 2023-01…
 4 dcat:Distribution API    https://data.c… https://dat… Acco… 2022-01… 2022-01…
 5 dcat:Distribution API    https://data.c… https://dat… Acco… 2022-01… 2021-01…
 6 dcat:Distribution API    https://data.c… https://dat… Acco… 2022-01… 2020-01…
 7 dcat:Distribution API    https://data.c… https://dat… Acco… 2024-01… 2019-01…
 8 dcat:Distribution API    https://data.c… https://dat… Acco… 2022-01… 2019-01…
 9 dcat:Distribution API    https://data.c… https://dat… Acco… 2022-01… 2018-01…
10 dcat:Distribution API    https://data.c… https://dat… Acco… 2022-01… 2017-01…
# ℹ 1,688 more rows

"text/csv"

main[["distribution_csv"]]

# A tibble: 1,676 × 7
   type              resourcesAPI  title modified temporal downloadURL mediaType
   <chr>             <chr>         <chr> <chr>    <chr>    <chr>       <chr>    
 1 dcat:Distribution https://data… Acco… 2025-01… 2025-01… https://da… text/csv 
 2 dcat:Distribution https://data… Acco… 2024-01… 2024-01… https://da… text/csv 
 3 dcat:Distribution https://data… Acco… 2023-03… 2023-01… https://da… text/csv 
 4 dcat:Distribution https://data… Acco… 2022-01… 2022-01… https://da… text/csv 
 5 dcat:Distribution https://data… Acco… 2025-01… 2025-01… https://da… text/csv 
 6 dcat:Distribution https://data… Acco… 2024-04… 2024-01… https://da… text/csv 
 7 dcat:Distribution https://data… Acco… 2023-03… 2023-01… https://da… text/csv 
 8 dcat:Distribution https://data… Acco… 2022-01… 2022-01… https://da… text/csv 
 9 dcat:Distribution https://data… ACO … 2024-01… 2021-01… https://da… text/csv 
10 dcat:Distribution https://data… ACO … 2024-01… 2021-01… https://da… text/csv 
# ℹ 1,666 more rows
…
