10 Groups – Refactoring Provider
…
$`PY 2022 Virtual Group Public Reporting: MIPS Measures and Attestations`
[1] "This file contains performance information for Merit-Based Incentive Payment System (MIPS) Quality, Promoting Interoperability, and Improvement Activities performance information submitted by virtual groups."

pro_group <- \(x) {
  subset_detect(
    pro, 
    title, 
    p = x)
  }

pro <- catalog_provider()

pro

# A tibble: 237 × 10
   title   group description issued     modified   released   identifier contact
   <chr>   <chr> <chr>       <date>     <date>     <date>     <chr>      <chr>  
 1 Dialys… Dial… A list of … 2020-03-14 2024-12-21 2025-01-15 23ew-n7w9  Dialys…
 2 Dialys… Dial… National a… 2020-03-14 2024-12-21 2025-01-15 2rkq-ygai  Dialys…
 3 Dialys… Dial… State aver… 2020-03-14 2024-12-21 2025-01-15 2fpu-cgbb  Dialys…
 4 ESRD Q… Dial… This datas… 2021-01-20 2024-12-03 2025-01-15 clinical_… ESRD Q…
 5 ESRD Q… Dial… This datas… 2021-01-20 2024-12-03 2025-01-15 complete_… ESRD Q…
 6 ESRD Q… Dial… This datas… 2025-01-15 2024-12-03 2025-01-15 covid-19_… ESRD Q…
 7 ESRD Q… Dial… This datas… 2021-01-20 2024-12-03 2025-01-15 ktv_compr… ESRD Q…
 8 ESRD Q… Dial… This table… 2021-01-20 2024-12-03 2025-01-15 footnotes  ESRD Q…
 9 ESRD Q… Dial… This datas… 2021-01-20 2024-12-03 2025-01-15 hypercalc… ESRD Q…
10 ESRD Q… Dial… This datas… 2021-01-20 2024-12-03 2025-01-15 qip_ich_c… ESRD Q…
# ℹ 227 more rows
# ℹ 2 more variables: download <chr>, site <chr>
…
temp_group <- \(x) {
  subset_detect(
    main_temp, 
    title, 
    p = x)
  }

.c(main_curr, main_temp) %=% catalog_main()

main_curr

# A tibble: 139 × 14
   title          description modified   periodicity temporal contact identifier
   <chr>          <chr>       <date>     <chr>       <chr>    <chr>   <chr>     
 1 ACO Realizing… "The Accou… 2025-03-18 Annually [… 2021-01… ACO RE… https://d…
 2 ACO Realizing… "Accountab… 2025-03-18 Annually [… 2021-01… ACO RE… https://d…
 3 ACO Realizing… "The Accou… 2025-03-18 Annually [… 2021-01… ACO RE… https://d…
 4 ACO Realizing… "The Accou… 2025-03-18 Annually [… 2021-01… ACO RE… https://d…
 5 Accountable C… "The Accou… 2025-01-15 Annually [… 2014-01… Shared… https://d…
 6 Accountable C… "The Accou… 2025-01-15 Annually [… 2017-01… Shared… https://d…
 7 Accountable C… "The Accou… 2025-01-15 Annually [… 2014-01… Shared… https://d…
 8 Advance Inves… "The Advan… 2025-03-18 Annually [… 2024-01… Shared… https://d…
 9 Agency for He… "The Agenc… 2020-12-08 Annually [… 2015-01… Defici… https://d…
10 CMS Program S… "The CMS P… 2023-03-06 Annually [… 2013-01… CMS Pr… https://d…
# ℹ 129 more rows
# ℹ 7 more variables: dictionary <chr>, site <chr>, references <chr>,
#   year <int>, download <chr>, filetype <chr>, resources <chr>

main_temp

# A tibble: 112 × 7
   title                   data description periodicity contact dictionary site 
 * <chr>               <list<t> <chr>       <chr>       <chr>   <chr>      <chr>
 1 ACO Realizing Equi…  [1 × 7] "The Accou… Annually [… ACO RE… https://d… http…
 2 ACO Realizing Equi…  [1 × 7] "Accountab… Annually [… ACO RE… https://d… http…
 3 ACO Realizing Equi…  [1 × 7] "The Accou… Annually [… ACO RE… https://d… http…
 4 ACO Realizing Equi…  [1 × 7] "The Accou… Annually [… ACO RE… https://d… http…
 5 Accountable Care O… [12 × 7] "The Accou… Annually [… Shared… https://d… http…
 6 Accountable Care O…  [9 × 7] "The Accou… Annually [… Shared… https://d… http…
 7 Accountable Care O… [12 × 7] "The Accou… Annually [… Shared… https://d… http…
 8 Advance Investment…  [2 × 7] "The Advan… Annually [… Shared… https://d… http…
 9 Agency for Healthc…  [2 × 7] "The Agenc… Annually [… Defici… https://d… http…
10 COVID-19 Nursing H…  [1 × 7] "Submitted… Weekly [R/… COVID-… https://d… http…
# ℹ 102 more rows
…
temp_group("Provider of Services File")

# A tibble: 3 × 7
  title                    data description periodicity contact dictionary site 
  <chr>                <list<t> <chr>       <chr>       <chr>   <chr>      <chr>
1 Provider of Service… [14 × 7] "The Provi… Quarterly … QIESDa… https://d… http…
2 Provider of Service… [14 × 7] "Please be… Quarterly … QIESDa… https://d… http…
3 Provider of Service…  [2 × 7] "The Provi… Quarterly … QIESDa… https://d… http…

curr_group("by Geography|by Provider|by Referring|by Drug|Physician/Supplier Procedure Summary|Hospital Provider Cost Report")

# A tibble: 22 × 14
   title          description modified   periodicity temporal contact identifier
   <chr>          <chr>       <date>     <chr>       <chr>    <chr>   <chr>     
 1 Hospital Prov… "The Hospi… 2024-10-23 Annually [… 2011-01… PDAG D… https://d…
 2 Medicaid Opio… "The Medic… 2024-10-11 Annually [… 2022-01… Medica… https://d…
 3 Medicaid Spen… "The Medic… 2024-06-13 Annually [… 2022-01… CMS Dr… https://d…
 4 Medicare Dura… "The Medic… 2024-06-04 Annually [… 2014-01… Medica… https://d…
 5 Medicare Dura… "The Medic… 2024-06-04 Annually [… 2014-01… Medica… https://d…
 6 Medicare Dura… "The Medic… 2024-06-04 Annually [… 2014-01… Medica… https://d…
 7 Medicare Inpa… "The Medic… 2024-06-04 Annually [… 2013-01… Medica… https://d…
 8 Medicare Inpa… "The Medic… 2024-06-04 Annually [… 2013-01… Medica… https://d…
 9 Medicare Inpa… "The Medic… 2024-06-04 Annually [… 2013-01… Medica… https://d…
10 Medicare Outp… "The Medic… 2024-06-04 Annually [… 2015-01… Medica… https://d…
# ℹ 12 more rows
# ℹ 7 more variables: dictionary <chr>, site <chr>, references <chr>,
#   year <int>, download <chr>, filetype <chr>, resources <chr>

temp_group("by Geography|by Provider|by Referring|by Drug|Physician/Supplier Procedure Summary|Hospital Provider Cost Report")

# A tibble: 22 × 7
   title                   data description periodicity contact dictionary site 
   <chr>               <list<t> <chr>       <chr>       <chr>   <chr>      <chr>
 1 Hospital Provider … [12 × 7] "The Hospi… Annually [… PDAG D… https://d… http…
 2 Medicaid Opioid Pr…  [1 × 7] "The Medic… Annually [… Medica… https://d… http…
 3 Medicaid Spending …  [1 × 7] "The Medic… Annually [… CMS Dr… https://d… http…
 4 Medicare Durable M…  [9 × 7] "The Medic… Annually [… Medica… https://d… http…
 5 Medicare Durable M…  [9 × 7] "The Medic… Annually [… Medica… https://d… http…
 6 Medicare Durable M…  [9 × 7] "The Medic… Annually [… Medica… https://d… http…
 7 Medicare Inpatient… [10 × 7] "The Medic… Annually [… Medica… https://d… http…
 8 Medicare Inpatient… [10 × 7] "The Medic… Annually [… Medica… https://d… http…
 9 Medicare Inpatient… [10 × 7] "The Medic… Annually [… Medica… https://d… http…
10 Medicare Outpatien…  [8 × 7] "The Medic… Annually [… Medica… https://d… http…
# ℹ 12 more rows
…
curr_group("CMS Program Statistics") |> 
  handle_na()

# A tibble: 21 × 10
   title          description modified   periodicity temporal contact identifier
   <chr>          <chr>       <date>     <chr>       <chr>    <chr>   <chr>     
 1 CMS Program S… "The CMS P… 2023-03-06 Annually [… 2013-01… CMS Pr… https://d…
 2 CMS Program S… "The CMS P… 2024-05-16 Annually [… 2016-01… CMS Pr… https://d…
 3 CMS Program S… "The CMS P… 2024-05-16 Annually [… 2016-01… CMS Pr… https://d…
 4 CMS Program S… "The CMS P… 2024-05-24 Annually [… 2016-01… CMS Pr… https://d…
 5 CMS Program S… "The CMS P… 2024-05-16 Annually [… 2016-01… CMS Pr… https://d…
 6 CMS Program S… "The CMS P… 2023-03-06 Annually [… 2013-01… CMS Pr… https://d…
 7 CMS Program S… "The Medic… 2023-06-12 Annually [… 2013-01… CMS Pr… https://d…
 8 CMS Program S… "The CMS P… 2023-03-06 Annually [… 2013-01… CMS Pr… https://d…
 9 CMS Program S… "The CMS P… 2023-03-06 Annually [… 2013-01… CMS Pr… https://d…
10 CMS Program S… "The CMS P… 2023-03-06 Annually [… 2013-01… CMS Pr… https://d…
# ℹ 11 more rows
# ℹ 3 more variables: dictionary <chr>, site <chr>, references <chr>

curr_group("^(Federally Qualified Health Center|Rural Health Clinic|Home Health Agency|Hospice|Skilled Nursing Facility|Long-Term Care Facility|Hospital|Home Infusion)")

# A tibble: 23 × 14
   title          description modified   periodicity temporal contact identifier
   <chr>          <chr>       <date>     <chr>       <chr>    <chr>   <chr>     
 1 Federally Qua… The Federa… 2025-01-15 Quarterly … 2023-10… Provid… https://d…
 2 Federally Qua… The Federa… 2025-01-15 Quarterly … 2023-10… Provid… https://d…
 3 Home Health A… The Home H… 2025-01-15 Quarterly … 2023-04… Provid… https://d…
 4 Home Health A… The Home H… 2024-10-25 Annually [… 2020-01… PDAG D… https://d…
 5 Home Health A… The Home H… 2025-01-15 Quarterly … 2023-04… Provid… https://d…
 6 Home Infusion… The Home I… 2025-01-07 Biweekly [… 2023-05… Provid… https://d…
 7 Hospice All O… The  Hospi… 2025-01-15 Quarterly … 2023-04… Provid… https://d…
 8 Hospice Enrol… The Hospic… 2025-01-15 Quarterly … 2023-04… Provid… https://d…
 9 Hospital All … The Hospit… 2025-01-15 Monthly [R… 2022-11… Provid… https://d…
10 Hospital Chan… The Hospit… 2025-01-15 Quarterly … 2022-01… Provid… https://d…
# ℹ 13 more rows
# ℹ 7 more variables: dictionary <chr>, site <chr>, references <chr>,
#   year <int>, download <chr>, filetype <chr>, resources <chr>
…
