10 Pagination + Offset – Refactoring Provider
…
dupes <- resp |> 
  count(npi, sort = TRUE) |> 
  filter(n > 1) |> 
  pull(npi)

resp |> 
  filter(npi %in% dupes) |> 
  arrange(npi)

# A tibble: 163 × 14
     req first_name last_name npi        specialty         optout_effective_date
   <int> <chr>      <chr>     <chr>      <chr>             <chr>                
 1     2 Barbara    Lino      1013130632 Clinical Psychol… 04/16/2021           
 2     2 Barbara    Lino      1013130632 Clinical Psychol… 04/19/2021           
 3     2 Victoria   Lasser    1043597586 Clinical Psychol… 10/21/2015           
 4     3 Victoria   Lasser    1043597586 Clinical Psychol… 01/13/2016           
 5     2 Peter      Chang     1053320606 Dentist           09/25/2015           
 6     3 Peter      Chang     1053320606 Dentist           05/31/2016           
 7     1 Donna      Lewinter  1053493767 Psychiatry        10/10/2002           
 8     1 Donna      Lewinter  1053493767 Psychiatry        10/10/2012           
 9     1 Jeffrey    Dean      1073687711 Oral Surgery      06/25/2023           
10     1 Jeffrey    Dean      1073687711 Maxillofacial Su… 06/25/2013           
# ℹ 153 more rows
# ℹ 8 more variables: optout_end_date <chr>, first_line_street_address <chr>,
#   second_line_street_address <chr>, city_name <chr>, state_code <chr>,
#   zip_code <chr>, eligible_to_order_and_refer <chr>, last_updated <chr>
…
res <- httr2::req_perform_parallel(reqs) |> 
  httr2::resps_successes()

res[[1]] |> 
  resp_body_json(simplifyVector = TRUE)

list()

queryurl |> 
  req_perform() |> 
  resp_body_json(simplifyVector = TRUE) |> 
  tibble()

# A tibble: 5,000 × 13
   `First Name` `Last Name` NPI        Specialty          Optout Effective Dat…¹
   <chr>        <chr>       <chr>      <chr>              <chr>                 
 1 Namir        Damluji     1124116793 Psychiatry         07/26/2020            
 2 Lesley       Macarthur   1073604054 Psychiatry         04/05/2012            
 3 Sharon       Bae         1346211372 Internal Medicine  06/01/2012            
 4 Albert       Fuchs       1013964386 Internal Medicine  07/01/2012            
 5 Linda        Schaffer    1740495043 Psychiatry         06/14/2012            
 6 Charles      Schaffer    1114132313 Psychiatry         06/14/2012            
 7 Cheri        Adrian      1366597833 Clinical Psycholo… 05/25/2012            
 8 Richard      Wolf        1891713079 Internal Medicine  08/16/2012            
 9 Robert       Woods       1881601029 Psychiatry         06/11/2012            
10 Shela        Fisk        1417084583 Clinical Psycholo… 06/20/2012            
# ℹ 4,990 more rows
# ℹ abbreviated name: ¹​`Optout Effective Date`
# ℹ 8 more variables: `Optout End Date` <chr>,
#   `First Line Street Address` <chr>, `Second Line Street Address` <chr>,
#   `City Name` <chr>, `State Code` <chr>, `Zip code` <chr>,
#   `Eligible to Order and Refer` <chr>, `Last updated` <chr>
