12 Query – Refactoring Provider
…
dupes <- resp |> 
  count(npi, sort = TRUE) |> 
  filter(n > 1) |> 
  pull(npi)

resp |> 
  filter(npi %in% dupes) |> 
  arrange(npi)

# A tibble: 161 × 14
   req_id first_name last_name npi        specialty        optout_effective_date
    <int> <chr>      <chr>     <chr>      <chr>            <chr>                
 1      2 Barbara    Lino      1013130632 Clinical Psycho… 04/16/2021           
 2      2 Barbara    Lino      1013130632 Clinical Psycho… 04/19/2021           
 3      2 Victoria   Lasser    1043597586 Clinical Psycho… 10/21/2015           
 4      3 Victoria   Lasser    1043597586 Clinical Psycho… 01/13/2016           
 5      2 Peter      Chang     1053320606 Dentist          09/25/2015           
 6      3 Peter      Chang     1053320606 Dentist          05/31/2016           
 7      1 Donna      Lewinter  1053493767 Psychiatry       10/10/2002           
 8      1 Donna      Lewinter  1053493767 Psychiatry       10/10/2012           
 9      1 Jeffrey    Dean      1073687711 Oral Surgery     06/25/2023           
10      1 Jeffrey    Dean      1073687711 Maxillofacial S… 06/25/2013           
# ℹ 151 more rows
# ℹ 8 more variables: optout_end_date <chr>, first_line_street_address <chr>,
#   second_line_street_address <chr>, city_name <chr>, state_code <chr>,
#   zip_code <chr>, eligible_to_order_and_refer <chr>, last_updated <chr>
…
res <- req_perform_parallel(reqs) |> 
  resps_successes() |> 
  map(\(x) tibble(resp_body_json(x, simplifyVector = TRUE))) |> 
  bind_rows()

providertwo:::set_clean(res, names(res)) |> 
  providertwo:::map_na_if() |> 
  mtt(
    optout_effective_date = providertwo:::as_date(optout_effective_date, fmt = "%m/%d/%Y"),
    optout_end_date = providertwo:::as_date(optout_end_date, fmt = "%m/%d/%Y"),
    last_updated = providertwo:::as_date(last_updated, fmt = "%m/%d/%Y")
    )

# A tibble: 9,608 × 13
   first_name last_name npi      specialty optout_effective_date optout_end_date
   <chr>      <chr>     <chr>    <chr>     <date>                <date>         
 1 Namir      Damluji   1124116… Psychiat… 2020-07-26            2026-07-26     
 2 Lesley     Macarthur 1073604… Psychiat… 2012-04-05            2026-04-05     
 3 Sharon     Bae       1346211… Internal… 2012-06-01            2026-06-01     
 4 Albert     Fuchs     1013964… Internal… 2012-07-01            2026-07-01     
 5 Abilash    Gopal     1306179… Psychiat… 2016-11-29            2026-11-29     
 6 Linda      Schaffer  1740495… Psychiat… 2012-06-14            2026-06-14     
 7 Charles    Schaffer  1114132… Psychiat… 2012-06-14            2026-06-14     
 8 Cheri      Adrian    1366597… Clinical… 2012-05-25            2026-05-25     
 9 Richard    Wolf      1891713… Internal… 2012-08-16            2026-08-16     
10 Robert     Woods     1881601… Psychiat… 2012-06-11            2026-06-11     
# ℹ 9,598 more rows
# ℹ 7 more variables: first_line_street_address <chr>,
#   second_line_street_address <chr>, city_name <chr>, state_code <chr>,
#   zip_code <chr>, eligible_to_order_and_refer <chr>, last_updated <date>
…
